BodyweightKg,Name,Country,State,Event,Equipment,Division,Sex,WeightClassKg,Best3BenchKg,Bench4Kg,Best3DeadliftKg,Deadlift4Kg,TotalKg,Place
59.78,Jorge Salazar Flores,Mexico,,D,Multi-ply,Class 1,M,60,,,180,,180,1
67.22,Mauricio Mendoza,Mexico,,D,Multi-ply,Class 1,M,67.5,,,227.5,,227.5,1
65.05,Barry Kunkel,USA,OR,D,Multi-ply,Class 1,M,67.5,,,217.5,,217.5,2
72.3,Chris Rayner,USA,OK,D,Multi-ply,Class 1,M,75,,,220,,220,1
73.66,David Salazar Flores,Mexico,,D,Multi-ply,Class 1,M,75,,,217.5,,217.5,2
72.85,Aaron Benes,USA,CA,D,Multi-ply,Class 1,M,75,,,212.5,,212.5,3
71.12,Barry Folgate,USA,IL,D,Multi-ply,Class 1,M,75,,,177.5,,177.5,4
70.94,Harry Tsang,USA,PA,D,Multi-ply,Class 1,M,75,,,135,,135,5
79.65,Michael Pettinger,USA,IL,D,Multi-ply,Class 1,M,82.5,,,245,,245,1
77.47,Windell Potier,USA,CA,D,Multi-ply,Class 1,M,82.5,,,215,,215,2
82.19,Kyle Herzik,USA,NV,D,Multi-ply,Class 1,M,82.5,,,192.5,,192.5,3
89.63,Jared Wilsey,USA,TN,D,Multi-ply,Class 1,M,90,,,262.5,,262.5,1
89.81,Trinity Eriksen,USA,NV,D,Multi-ply,Class 1,M,90,,,240,,240,2
87.63,Landon Cross,USA,IL,D,Multi-ply,Class 1,M,90,,,237.5,,237.5,3
95.44,Patrick Shippert,USA,IL,D,Multi-ply,Class 1,M,100,,,287.5,,287.5,1
91.72,Al Tortorelli,USA,CA,D,Multi-ply,Class 1,M,100,,,265,,265,2
99.25,Michael Ireland,USA,WA,D,Multi-ply,Class 1,M,100,,,247.5,,247.5,3
95.44,Jonathan Jenkins,USA,MT,D,Multi-ply,Class 1,M,100,,,197.5,,197.5,4
100.88,Dennis Schmidt Jr,USA,MN,D,Multi-ply,Class 1,M,110,,,275,,275,1
108.95,Tom Pennella,USA,WA,D,Multi-ply,Class 1,M,110,,,275,,275,2
105.51,Kegan Engelke,USA,WA,D,Multi-ply,Class 1,M,110,,,265,,265,3
106.32,Brent Morris,USA,TN,D,Multi-ply,Class 1,M,110,,,257.5,,257.5,4
104.87,Jung Hyuk Ko,South Korea,,D,Multi-ply,Class 1,M,110,,,235,,235,5
104.42,Brady Tanner,USA,KS,D,Multi-ply,Class 1,M,110,,,222.5,,222.5,6
116.21,Terry Putman,USA,OK,D,Multi-ply,Class 1,M,117.5,,,290,,290,1
116.39,Tim Prince,USA,UT,D,Multi-ply,Class 1,M,117.5,,,272.5,,272.5,2
117.21,Mike De Witt,USA,WA,D,Multi-ply,Class 1,M,117.5,,,270,,270,3
116.85,Joseph McMurray,USA,CA,D,Multi-ply,Class 1,M,117.5,,,215,,215,4
123.74,David Bergman,USA,IL,D,Multi-ply,Class 1,M,125,,,230,,230,1
138.35,Ray Gandeza Jr,USA,HI,D,Multi-ply,Class 1,M,140,,,285,,285,1
125.46,Manny Burruel,USA,CA,D,Multi-ply,Class 1,M,140,,,277.5,,277.5,2
154.13,David Edgell,USA,UT,D,Multi-ply,Class 1,M,140+,,,320,,320,1
151.05,Chane Cline,USA,OH,D,Multi-ply,Class 1,M,140+,,,300,,300,2
149.87,Leo Contreras,USA,CA,D,Multi-ply,Class 1,M,140+,,,185,,185,3
144.61,Ron Bunch,USA,OR,D,Multi-ply,Class 1,M,140+,,,127.5,,127.5,4
78.02,Matthew Taylor,USA,WA,D,Multi-ply,Disabled,M,82.5,,,227.5,,227.5,1
78.11,Gregory Gibson,USA,TN,D,Multi-ply,Disabled,M,82.5,,,130,,130,2
88.27,Nick Sinardi,USA,FL,D,Multi-ply,Disabled,M,90,,,215,,215,1
95.44,Jonathan Jenkins,USA,MT,D,Multi-ply,Disabled,M,100,,,197.5,,197.5,1
96.89,Carl Mudge,USA,OR,D,Multi-ply,Disabled,M,100,,,185,,185,2
59.78,Jorge Salazar Flores,Mexico,,D,Multi-ply,Juniors 20-25,M,60,,,180,,180,1
66.77,Charles West,USA,IL,D,Multi-ply,Juniors 20-25,M,67.5,,,182.5,,182.5,1
65.05,Ryan Martin,USA,OR,D,Multi-ply,Juniors 20-25,M,67.5,,,180,,180,2
72.48,Ryan Snelling,USA,MO,D,Multi-ply,Juniors 20-25,M,75,,,277.5,,277.5,1
71.58,Laramie McMasters,USA,IL,D,Multi-ply,Juniors 20-25,M,75,,,232.5,,232.5,2
73.66,David Salazar Flores,Mexico,,D,Multi-ply,Juniors 20-25,M,75,,,217.5,,217.5,3
74.93,Blake Richards,USA,IL,D,Multi-ply,Juniors 20-25,M,75,,,195,,195,4
81.28,Jeremy Benezra,USA,WA,D,Multi-ply,Juniors 20-25,M,82.5,,,272.5,,272.5,1
77.93,Andrew Kim,USA,IL,D,Multi-ply,Juniors 20-25,M,82.5,,,217.5,,217.5,2
79.47,Joshua Reyes,USA,IL,D,Multi-ply,Juniors 20-25,M,82.5,,,207.5,,207.5,3
80.56,David Jurgens,USA,CA,D,Multi-ply,Juniors 20-25,M,82.5,,,62.5,,62.5,4
89.99,Yuri Nikonchuk,Belarus,,D,Multi-ply,Juniors 20-25,M,90,,,285,,285,1
89.81,Leonard Harison,USA,WA,D,Multi-ply,Juniors 20-25,M,90,,,263,,263,2
88.99,Vic Karpenko,USA,CA,D,Multi-ply,Juniors 20-25,M,90,,,245,,245,3
87.63,Landon Cross,USA,IL,D,Multi-ply,Juniors 20-25,M,90,,,237.5,,237.5,4
88.72,Michael Minahan,USA,CA,D,Multi-ply,Juniors 20-25,M,90,,,205,,205,5
95.44,Patrick Shippert,USA,IL,D,Multi-ply,Juniors 20-25,M,100,,,287.5,,287.5,1
94.62,Steven McShane,USA,MI,D,Multi-ply,Juniors 20-25,M,100,,,277.5,,277.5,2
99.79,Tommy Mendoza,USA,CA,D,Multi-ply,Juniors 20-25,M,100,,,237.5,,237.5,3
107.41,Jonathan Leftwich,USA,AL,D,Multi-ply,Juniors 20-25,M,110,,,227.5,,227.5,1
116.75,Ryan Vessey,USA,WA,D,Multi-ply,Juniors 20-25,M,117.5,,,280,,280,1
110.86,Josh Nelson,USA,AL,D,Multi-ply,Juniors 20-25,M,117.5,,,252.5,,252.5,2
114.85,Jesse Ward,USA,WA,D,Multi-ply,Juniors 20-25,M,117.5,,,240,,240,3
123.2,Jerry Pritchett,USA,AZ,D,Multi-ply,Juniors 20-25,M,125,,,322.5,,322.5,1
123.74,David Bergman,USA,IL,D,Multi-ply,Juniors 20-25,M,125,,,230,,230,2
118.02,Howard Shepperson,USA,UT,D,Multi-ply,Juniors 20-25,M,125,,,227.5,,227.5,3
58.69,Erica Haislar,USA,IL,D,Multi-ply,Juniors 20-25,F,60,,,125,,125,1
71.3,Mandi Gast,USA,WA,D,Multi-ply,Juniors 20-25,F,75,,,125,,125,1
76.02,Kristy Scott,USA,ME,D,Multi-ply,Juniors 20-25,F,82.5,,,193,197.5,193,1
79.47,Lisa Elliott,USA,OR,D,Multi-ply,Juniors 20-25,F,82.5,,,165,,165,2
78.56,Jamie Tanner,USA,KS,D,Multi-ply,Juniors 20-25,F,82.5,,,137.5,,137.5,3
89.99,Francesca Mangaoang-Brodine,USA,WA,D,Multi-ply,Juniors 20-25,F,90,,,172.5,,172.5,1
85.09,Andrea Kent,USA,MT,D,Multi-ply,Juniors 20-25,F,90,,,122.5,,122.5,2
65.95,David Edmondson,USA,UT,D,Multi-ply,Law-Fire 40-47,M,67.5,,,240.5,,240.5,1
74.03,Larry Esquivel,USA,CA,D,Multi-ply,Law-Fire 40-47,M,75,,,162.5,,162.5,1
107.77,Ismyanto Soekardi,USA,CA,D,Multi-ply,Law-Fire 40-47,M,110,,,280,,280,1
159.94,Dave Marchant,USA,UT,D,Multi-ply,Law-Fire 40-47,M,140+,,,237.5,,237.5,1
87.82,Charles McFarland,USA,OR,D,Multi-ply,Law-Fire 48+,M,90,,,232.5,,232.5,1
99.16,Tom Overholtzer,USA,CA,D,Multi-ply,Law-Fire 48+,M,100,,,200,,200,1
124.01,Walt Faulkner,USA,CA,D,Multi-ply,Law-Fire 48+,M,125,,,327.5,,327.5,1
123.29,Ken Eyre,USA,UT,D,Multi-ply,Law-Fire 48+,M,125,,,215,,215,2
49.35,Shauna Ferguson,USA,WA,D,Multi-ply,Law-Fire 40-47,M,52,,,115.5,,115.5,1
54.16,Lynda Christopher,USA,AZ,D,Multi-ply,Law-Fire 40-47,M,56,,,115,,115,1
65.95,David Edmondson,USA,UT,D,Multi-ply,Law-Fire Open,M,67.5,,,240.5,,240.5,1
109.68,Ryan Harth,USA,IL,D,Multi-ply,Law-Fire Open,M,110,,,322.5,,322.5,1
116.12,Mike Blankenship,USA,UT,D,Multi-ply,Law-Fire Open,M,117.5,,,272.5,,272.5,1
116.39,Tim Prince,USA,UT,D,Multi-ply,Law-Fire Open,M,117.5,,,272.5,,272.5,2
151.05,Chane Cline,USA,OH,D,Multi-ply,Law-Fire Open,M,140+,,,300,,300,1
144.15,Keoni Reich,USA,HI,D,Multi-ply,Law-Fire Open,M,140+,,,295,,295,2
54.16,Lynda Christopher,USA,AZ,D,Multi-ply,Law-Fire Open,M,56,,,115,,115,1
74.93,Richard Anderson,USA,AL,D,Multi-ply,Law-Fire Submasters,M,75,,,187.5,,187.5,1
116.3,Lance Davis,USA,UT,D,Multi-ply,Law-Fire Submasters,M,117.5,,,257.5,,257.5,1
74.93,Sakari Selkäinaho,Finland,,D,Multi-ply,Masters 40-46,M,75,,,252.5,,252.5,1
73.94,Michael Hara,USA,CA,D,Multi-ply,Masters 40-46,M,75,,,240,,240,2
74.39,Keith Cunningham,USA,WA,D,Multi-ply,Masters 40-46,M,75,,,230,,230,3
73.84,Philip O'Neil,USA,CA,D,Multi-ply,Masters 40-46,M,75,,,192.5,,192.5,4
80.47,Dan Guches,USA,OR,D,Multi-ply,Masters 40-46,M,82.5,,,260,,260,1
78.56,Mark Lo,USA,HI,D,Multi-ply,Masters 40-46,M,82.5,,,227.5,,227.5,2
82.19,Rolando Espinoza,USA,TX,D,Multi-ply,Masters 40-46,M,82.5,,,220,,220,3
80.38,Vilmar Oliveira,Brazil,,D,Multi-ply,Masters 40-46,M,82.5,,,212.5,,212.5,4
80.1,David Brekke,USA,CO,D,Multi-ply,Masters 40-46,M,82.5,,,210.5,,210.5,5
85.91,Brian Baertlein,USA,OR,D,Multi-ply,Masters 40-46,M,90,,,260,,260,1
88,Raymond Clift,USA,UT,D,Multi-ply,Masters 40-46,M,90,,,252.5,,252.5,2
98.61,Don Moser,USA,TX,D,Multi-ply,Masters 40-46,M,100,,,275,,275,1
99.88,Gary Lands,USA,GA,D,Multi-ply,Masters 40-46,M,100,,,272.5,,272.5,2
96.52,Kevin Doerfler,USA,OR,D,Multi-ply,Masters 40-46,M,100,,,242.5,,242.5,3
105.78,George Herring,USA,GA,D,Multi-ply,Masters 40-46,M,110,,,350.5,,350.5,1
107.32,George Phipps,USA,NV,D,Multi-ply,Masters 40-46,M,110,,,255,,255,2
113.04,Bobby Driskill,USA,AL,D,Multi-ply,Masters 40-46,M,117.5,,,295,,295,1
113.13,Todd Christensen,USA,WA,D,Multi-ply,Masters 40-46,M,117.5,,,290.5,,290.5,2
116.21,Terry Putman,USA,OK,D,Multi-ply,Masters 40-46,M,117.5,,,290,,290,3
114.31,Darwin English,USA,NV,D,Multi-ply,Masters 40-46,M,117.5,,,287.5,,287.5,4
116.85,Joseph McMurray,USA,CA,D,Multi-ply,Masters 40-46,M,117.5,,,215,,215,5
122.65,Ron West,USA,WA,D,Multi-ply,Masters 40-46,M,125,,,235,,235,1
131,Andy Medak,USA,WA,D,Multi-ply,Masters 40-46,M,140,,,320,,320,1
128.19,Mark Phillips,USA,TN,D,Multi-ply,Masters 40-46,M,140,,,275,,275,2
136.98,John Hudson,USA,IL,D,Multi-ply,Masters 40-46,M,140,,,275,,275,3
157.76,Jim Sheffield,USA,CA,D,Multi-ply,Masters 40-46,M,140+,,,275,,275,1
59.78,Gary Bobrovitz,Canada,,D,Multi-ply,Masters 47-53,M,60,,,155,,155,1
67.49,Alfredo Evangelista,USA,OR,D,Multi-ply,Masters 47-53,M,67.5,,,212.5,,212.5,1
73.57,Dean Kaneshiro,USA,HI,D,Multi-ply,Masters 47-53,M,75,,,252.5,,252.5,1
74.93,Richard Cirigliano,USA,CA,D,Multi-ply,Masters 47-53,M,75,,,237.5,,237.5,2
74.93,Marloe Mosley,USA,TX,D,Multi-ply,Masters 47-53,M,75,,,205,,205,3
,Tom Eiseman,USA,NJ,D,Multi-ply,Masters 47-53,M,82.5,,,337.5,,337.5,1
83.82,Leamon Woodley,USA,WA,D,Multi-ply,Masters 47-53,M,90,,,312.5,,312.5,1
89.27,Neil Schoenebeck,USA,MI,D,Multi-ply,Masters 47-53,M,90,,,292.5,,292.5,2
89.99,Jody Woods,USA,CA,D,Multi-ply,Masters 47-53,M,90,,,285,,285,3
87.82,David Bertier,USA,CA,D,Multi-ply,Masters 47-53,M,90,,,247.5,,247.5,4
88.36,Charles Simpson,USA,OR,D,Multi-ply,Masters 47-53,M,90,,,245,,245,5
88.72,Mike McCormack,USA,CA,D,Multi-ply,Masters 47-53,M,90,,,240,,240,6
89.72,Greg Alves,USA,CA,D,Multi-ply,Masters 47-53,M,90,,,227.5,,227.5,7
87.27,William Stirling,Canada,,D,Multi-ply,Masters 47-53,M,90,,,215,,215,8
97.89,Clinton Sims,USA,CA,D,Multi-ply,Masters 47-53,M,100,,,302.5,308,302.5,1
96.62,Duane Burlingame,USA,IL,D,Multi-ply,Masters 47-53,M,100,,,292.5,,292.5,2
97.89,Kevin Fisher,USA,CA,D,Multi-ply,Masters 47-53,M,100,,,280,,280,3
97.16,Raul Lopez,USA,NV,D,Multi-ply,Masters 47-53,M,100,,,250,,250,4
105.51,Jerry Capello,USA,OR,D,Multi-ply,Masters 47-53,M,110,,,340,,340,1
108.68,Gary Stevens,USA,CA,D,Multi-ply,Masters 47-53,M,110,,,230,,230,2
107.23,Ronald Proctor,USA,GA,D,Multi-ply,Masters 47-53,M,110,,,227.5,,227.5,3
117.12,Dan Davidson,USA,AL,D,Multi-ply,Masters 47-53,M,117.5,,,300,,300,1
117.21,Mike De Witt,USA,WA,D,Multi-ply,Masters 47-53,M,117.5,,,270,,270,2
117.39,Kevin Smith,USA,WA,D,Multi-ply,Masters 47-53,M,117.5,,,215,,215,3
114.4,Gary Rapp,USA,MI,D,Multi-ply,Masters 47-53,M,117.5,,,186,,186,4
124.01,Walt Faulkner,USA,CA,D,Multi-ply,Masters 47-53,M,125,,,322.5,,322.5,1
133.54,Sam Pecktol,USA,OR,D,Multi-ply,Masters 47-53,M,140,,,317.5,330,317.5,1
139.89,Joe Mickelson,USA,WA,D,Multi-ply,Masters 47-53,M,140,,,272.5,,272.5,2
149.87,Leo Contreras,USA,CA,D,Multi-ply,Masters 47-53,M,140+,,,185,,185,1
144.61,Ron Bunch,USA,OR,D,Multi-ply,Masters 47-53,M,140+,,,127.5,,127.5,2
65.86,Robert Krowech,USA,MN,D,Multi-ply,Masters 54-60,M,67.5,,,155,,155,1
74.39,Gregory Kleyn,USA,IL,D,Multi-ply,Masters 54-60,M,75,,,225,,225,1
74.03,Moses Timbal,USA,HI,D,Multi-ply,Masters 54-60,M,75,,,202.5,,202.5,2
80.2,Gene Alexander,USA,WA,D,Multi-ply,Masters 54-60,M,82.5,,,227.5,,227.5,1
80.29,Jack Rankin,USA,WA,D,Multi-ply,Masters 54-60,M,82.5,,,202.5,,202.5,2
81.92,Eric Ansberry,USA,CA,D,Multi-ply,Masters 54-60,M,82.5,,,192.5,,192.5,3
79.2,Skye Wolf MacGregor,USA,OR,D,Multi-ply,Masters 54-60,M,82.5,,,127.5,,127.5,4
81.28,Kelly Cain,USA,NV,D,Multi-ply,Masters 54-60,M,82.5,,,102.5,,102.5,5
87.91,Mick Stevens,USA,WA,D,Multi-ply,Masters 54-60,M,90,,,237.5,,237.5,1
87.63,Bob Hochstein,USA,IL,D,Multi-ply,Masters 54-60,M,90,,,235,,235,2
89.45,Jarnail Singh Birring,UK,,D,Multi-ply,Masters 54-60,M,90,,,220,,220,3
88.36,Godfrey Holzinger,USA,WA,D,Multi-ply,Masters 54-60,M,90,,,212.5,,212.5,4
89.45,Kenneth Kirk,USA,CA,D,Multi-ply,Masters 54-60,M,90,,,157.5,,157.5,5
94.89,Larry Russell,USA,FL,D,Multi-ply,Masters 54-60,M,100,,,282.5,,282.5,1
103.42,Cliff Sandberg,USA,WA,D,Multi-ply,Masters 54-60,M,110,,,282.5,,282.5,1
106.32,Bill Anderberg,USA,OR,D,Multi-ply,Masters 54-60,M,110,,,252.5,,252.5,2
103.96,Clifford Ferris,USA,CA,D,Multi-ply,Masters 54-60,M,110,,,190,,190,3
112.4,Mike Fryar,USA,WA,D,Multi-ply,Masters 54-60,M,117.5,,,260,,260,1
74.3,Martin Montgomery,USA,IN,D,Multi-ply,Masters 61-67,M,75,,,215,,215,1
74.53,Ray Gandeza Sr,USA,HI,D,Multi-ply,Masters 61-67,M,75,,,205,,205,2
71.94,Arlindo da Silva,Brazil,,D,Multi-ply,Masters 61-67,M,75,,,170,,170,3
70.76,Thomas English,USA,NV,D,Multi-ply,Masters 61-67,M,75,,,125,,125,4
82.01,Rudy Lozano,USA,CA,D,Multi-ply,Masters 61-67,M,82.5,,,202.5,,202.5,1
82.46,John Michael Scott,USA,ME,D,Multi-ply,Masters 61-67,M,82.5,,,192.5,,192.5,2
81.65,William Watts,USA,AR,D,Multi-ply,Masters 61-67,M,82.5,,,160,,160,3
88.36,Olício dos Santos Filho,Brazil,,D,Multi-ply,Masters 61-67,M,90,,,300,,300,1
89.72,Tom Haggenmiller,USA,MN,D,Multi-ply,Masters 61-67,M,90,,,210,,210,2
89.18,Roy Eriksen,USA,NV,D,Multi-ply,Masters 61-67,M,90,,,200,,200,3
99.16,Tom Overholtzer,USA,CA,D,Multi-ply,Masters 61-67,M,100,,,200,,200,1
114.67,Bud Davis,USA,UT,D,Multi-ply,Masters 61-67,M,117.5,,,310,,310,1
128.37,Manuel Herrera,USA,UT,D,Multi-ply,Masters 61-67,M,140,,,237.5,,237.5,1
139.16,Robert O. Smith,Canada,,D,Multi-ply,Masters 61-67,M,140,,,237.5,,237.5,2
67.04,Larry Vincent,USA,OR,D,Multi-ply,Masters 68-74,M,67.5,,,167.5,,167.5,1
74.57,Bill Tinkler,USA,FL,D,Multi-ply,Masters 68-74,M,75,,,142.5,,142.5,1
79.83,Richard Simon,USA,CA,D,Multi-ply,Masters 68-74,M,82.5,,,153,,153,1
81.65,John McEwen,USA,CA,D,Multi-ply,Masters 68-74,M,82.5,,,115,,115,2
104.78,Lou Corulli,USA,WA,D,Multi-ply,Masters 68-74,M,110,,,152.5,,152.5,1
125.1,Gary E. Johnson,USA,WA,D,Multi-ply,Masters 68-74,M,140,,,137.5,,137.5,1
68.76,Robert Cortes,USA,CA,D,Multi-ply,Masters 75-79,M,75,,,202.5,,202.5,1
71.49,Jim Schall,USA,WA,D,Multi-ply,Masters 75-79,M,75,,,147.5,,147.5,2
66.32,Arthur Whinston,USA,OR,D,Multi-ply,Masters 80-84,M,67.5,,,60,63,60,1
63.59,James Butler,USA,CA,D,Multi-ply,Masters 80-84,M,67.5,,,57.5,62.5,57.5,2
76.48,Donald Dreyer,USA,LA,D,Multi-ply,Masters 80-84,M,82.5,,,115.5,,115.5,1
89.72,Edwin Free Jr,USA,TN,D,Multi-ply,Masters 80-84,M,90,,,130,,130,1
62.51,Jack Heizelman,USA,TX,D,Multi-ply,Masters 85-89,M,67.5,,,60,,60,1
43.91,Sandra Herring,USA,GA,D,Multi-ply,Masters 40-46,F,44,,,102.5,,102.5,1
44.81,Alexandra Vallejo,USA,CA,D,Multi-ply,Masters 40-46,F,48,,,137.5,,137.5,1
47.45,Desiree Brown,USA,CA,D,Multi-ply,Masters 40-46,F,48,,,120,,120,2
51.07,Claudia Salo,USA,CA,D,Multi-ply,Masters 40-46,F,52,,,117.5,,117.5,1
49.35,Shauna Ferguson,USA,WA,D,Multi-ply,Masters 40-46,F,52,,,115.5,,115.5,2
55.16,Alison Barnhill,USA,CA,D,Multi-ply,Masters 40-46,F,56,,,132.5,,132.5,1
59.96,Kelly Kennedy,USA,OR,D,Multi-ply,Masters 40-46,F,60,,,150,,150,1
57.42,Donna Madere-Hogg,USA,LA,D,Multi-ply,Masters 40-46,F,60,,,107.5,,107.5,2
65.32,Silvia Maher,USA,CA,D,Multi-ply,Masters 40-46,F,67.5,,,158,,158,1
72.03,Jamie Rayburn,USA,OR,D,Multi-ply,Masters 40-46,F,75,,,165,,165,1
73.21,Sheri Klocke,USA,OR,D,Multi-ply,Masters 40-46,F,75,,,147.5,,147.5,2
82.46,Kari Sabin,USA,FL,D,Multi-ply,Masters 40-46,F,82.5,,,178,182.5,178,1
80.56,Jennifer Taylor,USA,OR,D,Multi-ply,Masters 40-46,F,82.5,,,165,,165,2
80.47,Annette Sozzi,USA,CA,D,Multi-ply,Masters 40-46,F,82.5,,,160,,160,3
76.11,Barbara Workman,USA,OR,D,Multi-ply,Masters 40-46,F,82.5,,,130,,130,4
82.01,Pamela Michaels-Olson,USA,WA,D,Multi-ply,Masters 40-46,F,82.5,,,125,,125,5
88.99,Susan Jackson,USA,WA,D,Multi-ply,Masters 40-46,F,90,,,167.5,,167.5,1
106.32,Kristin LaMonica,USA,LA,D,Multi-ply,Masters 40-46,F,90+,,,102.5,,102.5,1
55.16,Denise Ruff,USA,OR,D,Multi-ply,Masters 47-53,F,56,,,175,,175,1
65.32,Kim Richardson,USA,OR,D,Multi-ply,Masters 47-53,F,67.5,,,117.5,,117.5,1
76.57,Cindy Weber,USA,TN,D,Multi-ply,Masters 47-53,F,82.5,,,160,,160,1
79.65,Jane Stabile,USA,MA,D,Multi-ply,Masters 47-53,F,82.5,,,155,160.5,155,2
82.46,Marilyn Lewis,USA,WA,D,Multi-ply,Masters 47-53,F,82.5,,,142.5,,142.5,3
86.45,Kathy Cash,USA,OR,D,Multi-ply,Masters 47-53,F,90,,,132.5,,132.5,1
105.41,Sue Vaterlaus,USA,CA,D,Multi-ply,Masters 47-53,F,90+,,,120,,120,1
44.27,Sherry Abblett,USA,CA,D,Multi-ply,Masters 54-60,F,48,,,87.5,88,87.5,1
63.68,Lori Lastufka,USA,WA,D,Multi-ply,Masters 54-60,F,67.5,,,125,,125,1
72.39,Judith Petray,USA,CA,D,Multi-ply,Masters 54-60,F,75,,,127.5,,127.5,1
80.2,Dana Backiel,USA,WA,D,Multi-ply,Masters 54-60,F,82.5,,,137.5,,137.5,1
89.18,Karen Polansky,USA,CA,D,Multi-ply,Masters 54-60,F,90,,,170,,170,1
94.44,Delia Chilgren,USA,CA,D,Multi-ply,Masters 54-60,F,90+,,,102.5,,102.5,1
47.99,Betty Lafferty,USA,AL,D,Multi-ply,Masters 61-67,F,48,,,86,88,86,1
55.16,Jo Walker,USA,OR,D,Multi-ply,Masters 61-67,F,56,,,177.5,,177.5,1
68.22,Mary Coffey,USA,LA,D,Multi-ply,Masters 61-67,F,75,,,82.5,,82.5,1
80.56,Pat Robey,USA,WA,D,Multi-ply,Masters 61-67,F,82.5,,,120.5,,120.5,1
54.43,Rae McEwen,USA,CA,D,Multi-ply,Masters 68-74,F,56,,,75,79,75,1
59.51,Melicent Whinston,USA,OR,D,Multi-ply,Masters 75-79,F,60,,,70,,70,1
59.78,Kip Hauser,USA,WA,D,Multi-ply,Open,M,60,,,182.5,,182.5,1
59.78,Gary Bobrovitz,Canada,,D,Multi-ply,Open,M,60,,,155,,155,2
64.77,Joel Scott,USA,TX,D,Multi-ply,Open,M,67.5,,,262.5,,262.5,1
67.22,Mauricio Mendoza,Mexico,,D,Multi-ply,Open,M,67.5,,,227.5,,227.5,2
65.05,Ryan Martin,USA,OR,D,Multi-ply,Open,M,67.5,,,180,,180,3
73.84,Tobias Adams,USA,CA,D,Multi-ply,Open,M,75,,,285,,285,1
72.48,Ryan Snelling,USA,MO,D,Multi-ply,Open,M,75,,,277.5,,277.5,2
73.57,Dean Kaneshiro,USA,HI,D,Multi-ply,Open,M,75,,,252.5,,252.5,3
74.93,Sakari Selkäinaho,Finland,,D,Multi-ply,Open,M,75,,,252.5,,252.5,4
74.93,Richard Cirigliano,USA,CA,D,Multi-ply,Open,M,75,,,237.5,,237.5,5
74.93,Marloe Mosley,USA,TX,D,Multi-ply,Open,M,75,,,205,,205,6
82.46,Tom Eiseman,USA,NJ,D,Multi-ply,Open,M,82.5,,,337.5,,337.5,1
76.48,Robert Godard,USA,OR,D,Multi-ply,Open,M,82.5,,,285,,285,2
81.28,Jeremy Benezra,USA,WA,D,Multi-ply,Open,M,82.5,,,272.5,,272.5,3
82.1,Eric Ansberry,USA,CA,D,Multi-ply,Open,M,82.5,,,192.5,,192.5,4
83.82,Leamon Woodley,USA,WA,D,Multi-ply,Open,M,90,,,312.5,,312.5,1
88.36,Olício dos Santos Filho,Brazil,,D,Multi-ply,Open,M,90,,,300,,300,2
89.63,Luke Richesson,USA,AZ,D,Multi-ply,Open,M,90,,,295,,295,3
89.99,Yuri Nikonchuk,Belarus,,D,Multi-ply,Open,M,90,,,285,,285,4
89.99,Jody Woods,USA,CA,D,Multi-ply,Open,M,90,,,285,,285,5
89.63,Jared Wilsey,USA,TN,D,Multi-ply,Open,M,90,,,262.5,,262.5,6
97.34,Tatu Avola,Finland,,D,Multi-ply,Open,M,100,,,340,,340,1
97.7,Chad Herrick,USA,MI,D,Multi-ply,Open,M,100,,,322.5,,322.5,2
96.16,Evandro Casagrande,Brazil,,D,Multi-ply,Open,M,100,,,321.5,,321.5,3
99.88,Chad Matthews,USA,TX,D,Multi-ply,Open,M,100,,,310,,310,4
94.98,Mike Woody,USA,IN,D,Multi-ply,Open,M,100,,,300,,300,5
96.62,Duane Burlingame,USA,IL,D,Multi-ply,Open,M,100,,,292.5,,292.5,6
97.25,Steve Pena,USA,CA,D,Multi-ply,Open,M,100,,,250,,250,7
105.78,George Herring,USA,GA,D,Multi-ply,Open,M,110,,,350.5,,350.5,1
102.97,Brandon Cass,USA,MO,D,Multi-ply,Open,M,110,,,341,,341,2
105.51,Jerry Capello,USA,OR,D,Multi-ply,Open,M,110,,,340,,340,3
105.51,Brent Howard,USA,ME,D,Multi-ply,Open,M,110,,,320,,320,5
109.68,Ryan Harth,USA,IL,D,Multi-ply,Open,M,110,,,322.5,,322.5,4
102.51,Greg Stephens,USA,CA,D,Multi-ply,Open,M,110,,,280,,280,6
100.88,Dennis Schmidt Jr,USA,MN,D,Multi-ply,Open,M,110,,,275,,275,7
106.32,Brent Morris,USA,TN,D,Multi-ply,Open,M,110,,,257.5,,257.5,8
115.12,Ryan Klein,USA,NV,D,Multi-ply,Open,M,117.5,,,318,,318,1
117.12,Dan Davidson,USA,AL,D,Multi-ply,Open,M,117.5,,,300,,300,2
113.04,Bobby Driskill,USA,AL,D,Multi-ply,Open,M,117.5,,,295,,295,3
117.3,Jani Toivo Kristian Ihalainen,Finland,,D,Multi-ply,Open,M,117.5,,,200,,200,4
121.93,Patrick Holloway,USA,AZ,D,Multi-ply,Open,M,125,,,353,,353,1
123.2,Jerry Pritchett,USA,AZ,D,Multi-ply,Open,M,125,,,322.5,,322.5,2
125,Vashon Brumfield,USA,WA,D,Multi-ply,Open,M,125,,,287.5,,287.5,4
121.38,David Freeland,USA,CA,D,Multi-ply,Open,M,125,,,295,,295,3
123.74,Brandon Bankston,USA,LA,D,Multi-ply,Open,M,125,,,272.5,,272.5,5
135.9,William Mott,USA,UT,D,Multi-ply,Open,M,140,,,322.5,,322.5,1
131,Andy Medak,USA,WA,D,Multi-ply,Open,M,140,,,320,,320,2
132.99,Dave Forstner,USA,MI,D,Multi-ply,Open,M,140,,,305,,305,3
128.19,Mark Phillips,USA,TN,D,Multi-ply,Open,M,140,,,275,,275,4
136.98,John Hudson,USA,IL,D,Multi-ply,Open,M,140,,,275,,275,5
139.89,Joe Mickelson,USA,WA,D,Multi-ply,Open,M,140,,,272.5,,272.5,6
179.35,Brian Oldham,USA,MN,D,Multi-ply,Open,M,140+,,,363.5,,363.5,1
154.13,David Edgell,USA,UT,D,Multi-ply,Open,M,140+,,,320,,320,2
168.55,Alan Valentin,USA,HI,D,Multi-ply,Open,M,140+,,,262.5,,262.5,3
44.81,Alexandra Vallejo,USA,CA,D,Multi-ply,Open,F,48,,,137.5,,137.5,1
47.45,Desiree Brown,USA,CA,D,Multi-ply,Open,F,48,,,120,,120,2
55.16,Jo Walker,USA,OR,D,Multi-ply,Open,F,56,,,177.5,,177.5,1
55.16,Alison Barnhill,USA,CA,D,Multi-ply,Open,F,56,,,132.5,,132.5,2
53.98,Sarah Biddle,USA,IN,D,Multi-ply,Open,F,56,,,82.5,,82.5,3
59.96,Jeanne Watts,USA,CA,D,Multi-ply,Open,F,60,,,171,,171,1
59.87,Mary Ann Hobbs,USA,WA,D,Multi-ply,Open,F,60,,,150,,150,2
59.87,Penelope Villegas,Mexico,,D,Multi-ply,Open,F,60,,,140,,140,3
59.78,Chih-Hsing Chang,Taiwan,,D,Multi-ply,Open,F,60,,,91,,91,4
65.14,Li Tan,USA,WA,D,Multi-ply,Open,F,67.5,,,125,,125,1
67.4,Gina Gendotti,USA,CA,D,Multi-ply,Open,F,67.5,,,125,,125,2
65.14,Elise Stickler,USA,NV,D,Multi-ply,Open,F,67.5,,,120,,120,3
67.9,Imelda Zamora Andujo,Mexico,,D,Multi-ply,Open,F,75,,,200,,200,1
72.48,Sabrina Armstrong,USA,CA,D,Multi-ply,Open,F,75,,,183,,183,2
70.76,Rebekah Krotzer,USA,MN,D,Multi-ply,Open,F,75,,,152.5,,152.5,3
76.57,Cindy Weber,USA,TN,D,Multi-ply,Open,F,82.5,,,160,,160,1
82.19,Abigail Biddle,USA,IN,D,Multi-ply,Open,F,82.5,,,142.5,,142.5,2
121.29,Kayla Taueli,USA,WA,D,Multi-ply,Open,F,90+,,,227.5,,227.5,1
101.24,Dawn Richards,USA,UT,D,Multi-ply,Open,F,90+,,,187.5,,187.5,2
55.7,Pao Thao,USA,CA,D,Multi-ply,Special Olympian,M,56,,,140,,140,1
55.43,Ever Renterol,USA,CA,D,Multi-ply,Special Olympian,M,56,,,75,,75,2
59.87,Raul Larin,USA,CA,D,Multi-ply,Special Olympian,M,60,,,65,,65,1
65.32,Jon Shapiro,USA,CA,D,Multi-ply,Special Olympian,M,67.5,,,157.5,,157.5,1
60.24,Mario Cabalka,USA,CA,D,Multi-ply,Special Olympian,M,67.5,,,122.5,,122.5,2
66.22,Chuck Fowler,USA,NV,D,Multi-ply,Special Olympian,M,67.5,,,122.5,,122.5,3
63.68,Joe Cisneros,USA,CA,D,Multi-ply,Special Olympian,M,67.5,,,105,,105,4
66.86,Dewey O'Keefe,USA,CA,D,Multi-ply,Special Olympian,M,67.5,,,97.5,,97.5,5
64.95,Josh Shaw,USA,NV,D,Multi-ply,Special Olympian,M,67.5,,,92.5,,92.5,6
63.23,Tyler Truscelli,USA,CA,D,Multi-ply,Special Olympian,M,67.5,,,90,,90,7
74.39,Douglass Hodges,USA,CA,D,Multi-ply,Special Olympian,M,75,,,142.5,,142.5,1
74.48,Arron Glass,USA,NV,D,Multi-ply,Special Olympian,M,75,,,137.5,,137.5,2
74.3,Joey Lowery,USA,CA,D,Multi-ply,Special Olympian,M,75,,,117.5,,117.5,3
70.67,Cori Van Eck,USA,CA,D,Multi-ply,Special Olympian,M,75,,,115,,115,4
71.67,Mike Sirard,USA,CA,D,Multi-ply,Special Olympian,M,75,,,102.5,,102.5,5
73.03,Dylan Anderson,USA,CA,D,Multi-ply,Special Olympian,M,75,,,77.5,,77.5,6
76.57,Antwon Belfils,USA,CA,D,Multi-ply,Special Olympian,M,82.5,,,182.5,,182.5,1
82.1,Patrick Acevez,USA,CA,D,Multi-ply,Special Olympian,M,82.5,,,137.5,,137.5,2
79.83,Mark Powers,USA,CA,D,Multi-ply,Special Olympian,M,82.5,,,122.5,,122.5,3
77.93,Shawn Stainbrook,USA,NV,D,Multi-ply,Special Olympian,M,82.5,,,120,,120,4
78.93,Michael McHugh,USA,CA,D,Multi-ply,Special Olympian,M,82.5,,,110,,110,5
75.57,David Williams,USA,CA,D,Multi-ply,Special Olympian,M,82.5,,,100,,100,6
76.84,Nick Denardo,USA,NV,D,Multi-ply,Special Olympian,M,82.5,,,82.5,,82.5,7
88.81,Richard Cha,USA,CA,D,Multi-ply,Special Olympian,M,90,,,145,,145,1
83.1,Scot Carter,USA,NV,D,Multi-ply,Special Olympian,M,90,,,95,,95,2
95.89,Tony Johnson,USA,CA,D,Multi-ply,Special Olympian,M,100,,,222.5,,222.5,1
94.44,Chris Dalton,USA,CA,D,Multi-ply,Special Olympian,M,100,,,150,,150,2
93.62,Richard Hall,USA,CA,D,Multi-ply,Special Olympian,M,100,,,132.5,,132.5,3
98.88,Robert Aranda,USA,CA,D,Multi-ply,Special Olympian,M,100,,,127.5,,127.5,4
94.8,Zach Tichava,USA,CA,D,Multi-ply,Special Olympian,M,100,,,120,,120,5
92.8,Bob Brewer,USA,CA,D,Multi-ply,Special Olympian,M,100,,,110,,110,6
93.98,Dennis Cooley,USA,CA,D,Multi-ply,Special Olympian,M,100,,,107.5,,107.5,7
107.77,Trevor Irwin,USA,CA,D,Multi-ply,Special Olympian,M,110,,,157.5,,157.5,1
105.96,James Sexton,USA,CA,D,Multi-ply,Special Olympian,M,110,,,142.5,,142.5,2
113.76,Bobby Lord,USA,TX,D,Multi-ply,Special Olympian,M,117.5,,,260,,260,1
114.4,Caleb Tombs,USA,CA,D,Multi-ply,Special Olympian,M,117.5,,,147.5,,147.5,2
114.21,Jeffrey Scollard,USA,CA,D,Multi-ply,Special Olympian,M,117.5,,,132.5,,132.5,3
116.03,Jason Souza,USA,CA,D,Multi-ply,Special Olympian,M,117.5,,,130,,130,4
119.29,Moeun Uon,USA,CA,D,Multi-ply,Special Olympian,M,125,,,185,,185,1
122.02,Greg Cowan,USA,NV,D,Multi-ply,Special Olympian,M,125,,,82.5,,82.5,2
145.15,Ryan Johnson,USA,NV,D,Multi-ply,Special Olympian,M,140+,,,170,,170,1
147.05,Jock Mayes,USA,CA,D,Multi-ply,Special Olympian,M,140+,,,165,,165,2
174.18,Kevin Klose,USA,CA,D,Multi-ply,Special Olympian,M,140+,,,102.5,,102.5,3
44.54,Soledad Rosas,USA,CA,D,Multi-ply,Special Olympian,F,48,,,62.5,,62.5,1
51.62,Amber Kaslar,USA,CA,D,Multi-ply,Special Olympian,F,52,,,85,,85,1
54.07,Jackie Kring,USA,CA,D,Multi-ply,Special Olympian,F,56,,,80,,80,1
58.33,Theresa Hererra,USA,NV,D,Multi-ply,Special Olympian,F,60,,,60,,60,1
62.14,Christina Gunter,USA,CA,D,Multi-ply,Special Olympian,F,67.5,,,70,123.5,70,1
77.84,Manya Wadera,USA,CA,D,Multi-ply,Special Olympian,F,82.5,,,52.5,113.5,52.5,1
86.55,Emily Matlack,USA,CA,D,Multi-ply,Special Olympian,F,90,,,100,123.5,100,1
89.54,Megan Adkins,USA,CA,D,Multi-ply,Special Olympian,F,90,,,97.5,117,97.5,2
99.43,Colleen Stainbrook,USA,NV,D,Multi-ply,Special Olympian,F,90+,,,80,160,80,1
100.15,Heather Hopps,USA,NV,D,Multi-ply,Special Olympian,F,90+,,,80,138.5,80,2
74.93,Monte Hokoana,USA,HI,D,Multi-ply,Submasters 34-39,M,75,,,245,134,245,1
74.93,Richard Anderson,USA,AL,D,Multi-ply,Submasters 34-39,M,75,,,187.5,77.5,187.5,2
79.65,Michael Pettinger,USA,IL,D,Multi-ply,Submasters 34-39,M,82.5,,,245,63.5,245,1
78.02,Matthew Taylor,USA,WA,D,Multi-ply,Submasters 34-39,M,82.5,,,227.5,52,227.5,2
96.16,Evandro Casagrande,Brazil,,D,Multi-ply,Submasters 34-39,M,100,,,321.5,67,321.5,1
99.97,Jeff Douglas,USA,IL,D,Multi-ply,Submasters 34-39,M,100,,,272.5,,272.5,2
97.52,Ed Barnes,USA,CA,D,Multi-ply,Submasters 34-39,M,100,,,250,,250,3
103.96,Carl Erhardt,USA,OR,D,Multi-ply,Submasters 34-39,M,110,,,272.5,,272.5,1
116.3,Lance Davis,USA,UT,D,Multi-ply,Submasters 34-39,M,117.5,,,257.5,,257.5,1
121.93,Patrick Holloway,USA,AZ,D,Multi-ply,Submasters 34-39,M,125,,,353,,353,1
132.99,Dave Forstner,USA,MI,D,Multi-ply,Submasters 34-39,M,140,,,305,,305,1
149.69,Dean Munsey,USA,OR,D,Multi-ply,Submasters 34-39,M,140+,,,295,,295,1
59.96,Jeanne Watts,USA,CA,D,Multi-ply,Submasters 34-39,F,60,,,171,,171,1
59.87,Penelope Villegas,Mexico,,D,Multi-ply,Submasters 34-39,F,60,,,140,,140,2
58.79,Rachel Unson,USA,WA,D,Multi-ply,Submasters 34-39,F,60,,,115,,115,3
66.68,Nancy Kim,USA,WA,D,Multi-ply,Submasters 34-39,F,67.5,,,147.5,,147.5,1
70.03,Teresa Jacobs,USA,WA,D,Multi-ply,Submasters 34-39,F,75,,,170,,170,1
70.13,Disarie Spencer,USA,CA,D,Multi-ply,Submasters 34-39,F,75,,,145,,145,2
80.38,Gwen Cables,USA,GA,D,Multi-ply,Submasters 34-39,F,82.5,,,152.5,,152.5,1
42.18,Brendall Curell,USA,OR,D,Multi-ply,Teen 13-15,M,44,,,75,,75,1
46.63,Zach Dwinell,USA,OK,D,Multi-ply,Teen 13-15,M,48,,,102.5,,102.5,1
48.08,Josh Voss,USA,WA,D,Multi-ply,Teen 13-15,M,52,,,102.5,,102.5,1
55.16,Donnie Miskinis,USA,OH,D,Multi-ply,Teen 13-15,M,56,,,147.5,,147.5,1
55.34,Brady Devens,USA,WA,D,Multi-ply,Teen 13-15,M,56,,,130,,130,2
55.61,Trevor English,USA,NV,D,Multi-ply,Teen 13-15,M,56,,,102.5,,102.5,3
58.06,Tyler English,USA,NV,D,Multi-ply,Teen 13-15,M,60,,,137.5,,137.5,1
59.42,Justin Scarbrough,USA,CA,D,Multi-ply,Teen 13-15,M,60,,,120.5,,120.5,2
65.68,Travis Belen,USA,WA,D,Multi-ply,Teen 13-15,M,67.5,,,182.5,,182.5,1
62.14,Ryan Lund,USA,UT,D,Multi-ply,Teen 13-15,M,67.5,,,137.5,,137.5,2
81.37,Adam Lindsey,USA,NV,D,Multi-ply,Teen 13-15,M,82.5,,,140,,140,1
92.99,Dustin Webb,USA,AR,D,Multi-ply,Teen 13-15,M,100,,,157.5,,157.5,1
55.61,Ray Segura,USA,WA,D,Multi-ply,Teen 16-19,M,56,,,165,,165,1
58.79,Michael Drew,USA,OR,D,Multi-ply,Teen 16-19,M,60,,,160,,160,1
64.5,Brett Faught,USA,IL,D,Multi-ply,Teen 16-19,M,67.5,,,175,,175,1
64.95,Dominic Baldassarre,USA,WA,D,Multi-ply,Teen 16-19,M,67.5,,,155,,155,2
72.3,Chris Rayner,USA,OK,D,Multi-ply,Teen 16-19,M,75,,,220,,220,1
73.84,Owen Scarbrough,USA,CA,D,Multi-ply,Teen 16-19,M,75,,,190,,190,2
70.94,Michael Mokuau,USA,NV,D,Multi-ply,Teen 16-19,M,75,,,188.5,,188.5,3
71.12,Barry Folgate,USA,IL,D,Multi-ply,Teen 16-19,M,75,,,177.5,,177.5,4
81.1,Luke Rowe,USA,IL,D,Multi-ply,Teen 16-19,M,82.5,,,215,,215,1
80.47,Jeremy Hedman,USA,CA,D,Multi-ply,Teen 16-19,M,82.5,,,182.5,,182.5,2
85,Hunter Beall,USA,LA,D,Multi-ply,Teen 16-19,M,90,,,252.5,,252.5,1
83.55,Colin Hogan,USA,WA,D,Multi-ply,Teen 16-19,M,90,,,235,,235,2
86.09,Eli Hatch,USA,IL,D,Multi-ply,Teen 16-19,M,90,,,220,,220,3
95.44,Andy Munsey,USA,OR,D,Multi-ply,Teen 16-19,M,100,,,245,,245,1
98.97,Mike Prothman,USA,WA,D,Multi-ply,Teen 16-19,M,100,,,227.5,,227.5,2
95.8,Adam Contreras,USA,CA,D,Multi-ply,Teen 16-19,M,100,,,180,,180,3
109.23,Kevin Romano,USA,GA,D,Multi-ply,Teen 16-19,M,110,,,205.5,,205.5,1
42.64,Sharee Jackson,USA,WA,D,Multi-ply,Teen 13-15,F,44,,,85.5,,85.5,1
34.75,Alex Pecktol,USA,OR,D,Multi-ply,Teen 13-15,F,44,,,75,,75,2
51.98,Janae Jackson,USA,WA,D,Multi-ply,Teen 13-15,F,52,,,102.5,,102.5,1
55.97,Amanda Wass,USA,OR,D,Multi-ply,Teen 13-15,F,56,,,127.5,,127.5,1
53.98,Sarah Biddle,USA,IN,D,Multi-ply,Teen 13-15,F,56,,,82.5,,82.5,2
88.99,Kayla Sua,USA,WA,D,Multi-ply,Teen 13-15,F,90,,,165,,165,1
54.79,Karina Phipps,USA,NV,D,Multi-ply,Teen 16-19,F,56,,,120,,120,1
55.97,Laurie Choate,USA,TN,D,Multi-ply,Teen 16-19,F,56,,,97.5,,97.5,2
,Julie Polk,USA,WA,D,Multi-ply,Teen 16-19,F,75,,,120,,120,1
82.19,Abigail Biddle,USA,IN,D,Multi-ply,Teen 16-19,F,82.5,,,142.5,,142.5,1
121.29,Kayla Taueli,USA,WA,D,Multi-ply,Teen 16-19,F,90+,,,227.5,,227.5,1
59.78,Jorge Salazar Flores,Mexico,,B,Multi-ply,Class 1,M,60,115,,,,115,1
65.59,Eric Nahorniak,USA,NV,B,Multi-ply,Class 1,M,67.5,152.5,,,,152.5,1
65.05,Barry Kunkel,USA,OR,B,Multi-ply,Class 1,M,67.5,140,,,,140,2
67.22,Mauricio Mendoza,Mexico,,B,Multi-ply,Class 1,M,67.5,132.5,,,,132.5,3
,Brent Dreger,USA,IL,B,Multi-ply,Class 1,M,75,140,,,,140,1
73.66,David Salazar Flores,Mexico,,B,Multi-ply,Class 1,M,75,135,,,,135,2
70.94,Harry Tsang,USA,PA,B,Multi-ply,Class 1,M,75,92.5,,,,92.5,3
79.47,Danny Russo,USA,CA,B,Multi-ply,Class 1,M,82.5,165,,,,165,1
82.19,Kyle Herzik,USA,NV,B,Multi-ply,Class 1,M,82.5,142.5,,,,142.5,2
79.92,Kevin Sawyer,USA,OK,B,Multi-ply,Class 1,M,82.5,140,,,,140,3
89.81,Trinity Eriksen,USA,NV,B,Multi-ply,Class 1,M,90,180,,,,180,1
87.18,Vincent Dobbs,USA,OK,B,Multi-ply,Class 1,M,90,150,,,,150,2
87.63,Landon Cross,USA,IL,B,Multi-ply,Class 1,M,90,145,,,,145,3
99.25,Michael Ireland,USA,WA,B,Multi-ply,Class 1,M,100,230,,,,230,1
96.8,Bruce Nichols,USA,NV,B,Multi-ply,Class 1,M,100,,,,,,DQ
98.16,Tom Pernu,USA,MN,B,Multi-ply,Class 1,M,100,208.5,,,,208.5,2
98.7,Barron Gehri,USA,WI,B,Multi-ply,Class 1,M,100,200,,,,200,3
99.97,Rodney Womack,USA,TX,B,Multi-ply,Class 1,M,100,200,,,,200,4
99.7,Michael Kuzmack,USA,CA,B,Multi-ply,Class 1,M,100,197.5,,,,197.5,5
99.34,Joaquin Perez,USA,CA,B,Multi-ply,Class 1,M,100,185,,,,185,6
98.52,Apalonio Jauregui,USA,CA,B,Multi-ply,Class 1,M,100,170,,,,170,7
101.97,Robert Budd,USA,NV,B,Multi-ply,Class 1,M,110,,,,,,DQ
102.97,Jeff Gaudern,USA,NV,B,Multi-ply,Class 1,M,110,,,,,,DQ
107.95,Paul Mercado,USA,IL,B,Multi-ply,Class 1,M,110,,,,,,DQ
105.14,Juan Laija,USA,CA,B,Multi-ply,Class 1,M,110,227.5,,,,227.5,1
107.41,Jonathan Leftwich,USA,AL,B,Multi-ply,Class 1,M,110,227.5,,,,227.5,2
105.51,Kegan Engelke,USA,WA,B,Multi-ply,Class 1,M,110,202.5,,,,202.5,3
108.95,Tom Pennella,USA,WA,B,Multi-ply,Class 1,M,110,192.5,,,,192.5,4
104.42,Brady Tanner,USA,KS,B,Multi-ply,Class 1,M,110,160,,,,160,5
116.21,Terry Putman,USA,OK,B,Multi-ply,Class 1,M,117.5,,,,,,DQ
114.03,Rick Soland,USA,WA,B,Multi-ply,Class 1,M,117.5,220,,,,220,1
,Joey Murphy,USA,GA,B,Multi-ply,Class 1,M,117.5,218.5,,,,218.5,2
116.39,Tim Prince,USA,UT,B,Multi-ply,Class 1,M,117.5,205,,,,205,3
116.85,Joseph McMurray,USA,CA,B,Multi-ply,Class 1,M,117.5,192.5,,,,192.5,4
113.58,Nathan Nash,USA,FL,B,Multi-ply,Class 1,M,117.5,160,,,,160,5
117.93,Jason Lawson,USA,TN,B,Multi-ply,Class 1,M,125,,,,,,DQ
118.39,Matt Myers,USA,ID,B,Multi-ply,Class 1,M,125,255,,,,255,1
123.74,David Bergman,USA,IL,B,Multi-ply,Class 1,M,125,165,,,,165,2
136.35,Mario Ceccarelli,USA,WA,B,Multi-ply,Class 1,M,140,252.5,,,,252.5,2
129.46,Bruce Sabin,USA,CA,B,Multi-ply,Class 1,M,140,252.5,,,,252.5,1
131.27,James Sayre,USA,OK,B,Multi-ply,Class 1,M,140,235.5,,,,235.5,3
134.63,Bill Alex,USA,CA,B,Multi-ply,Class 1,M,140,227.5,,,,227.5,4
155.13,Charlie Poteete,USA,TN,B,Multi-ply,Class 1,M,140+,243,,,,243,1
151.05,Chane Cline,USA,OH,B,Multi-ply,Class 1,M,140+,242.5,,,,242.5,2
149.87,Leo Contreras,USA,CA,B,Multi-ply,Class 1,M,140+,195,,,,195,3
55.34,Michael Aguanno,USA,NY,B,Multi-ply,Disabled,M,56,55,,,,55,1
78.02,Matthew Taylor,USA,WA,B,Multi-ply,Disabled,M,82.5,122.5,,,,122.5,1
81.37,Anthony Kokell,USA,NY,B,Multi-ply,Disabled,M,82.5,108,,,,108,2
78.11,Gregory Gibson,USA,TN,B,Multi-ply,Disabled,M,82.5,80,,,,80,3
88.27,Nick Sinardi,USA,FL,B,Multi-ply,Disabled,M,90,70,,,,70,1
98.34,Sean McGrath,USA,NY,B,Multi-ply,Disabled,M,100,142.5,,,,142.5,1
95.44,Jonathan Jenkins,USA,MT,B,Multi-ply,Disabled,M,100,107.5,,,,107.5,2
59.78,Jorge Salazar Flores,Mexico,,B,Multi-ply,Juniors 20-25,M,60,115,,,,115,1
59.15,Mark Lauricella,USA,CA,B,Multi-ply,Juniors 20-25,M,60,85,,,,85,2
66.5,John Orsua,USA,CA,B,Multi-ply,Juniors 20-25,M,67.5,,,,,,DQ
65.77,Ruben Chavez,USA,CA,B,Multi-ply,Juniors 20-25,M,67.5,132.5,,,,132.5,1
65.68,Richard Chavez,USA,CA,B,Multi-ply,Juniors 20-25,M,67.5,125,,,,125,2
66.77,Charles West,USA,IL,B,Multi-ply,Juniors 20-25,M,67.5,112.5,,,,112.5,3
74.66,John Alves,USA,CA,B,Multi-ply,Juniors 20-25,M,75,217.5,,,,217.5,1
74.93,Blake Richards,USA,IL,B,Multi-ply,Juniors 20-25,M,75,152.5,,,,152.5,2
71.58,Laramie McMasters,USA,IL,B,Multi-ply,Juniors 20-25,M,75,135,,,,135,3
73.66,David Salazar Flores,Mexico,,B,Multi-ply,Juniors 20-25,M,75,135,,,,135,4
77.93,Andrew Kim,USA,IL,B,Multi-ply,Juniors 20-25,M,82.5,233,,,,233,1
81.1,Stephen Judah,USA,FL,B,Multi-ply,Juniors 20-25,M,82.5,205,,,,205,2
79.47,Joshua Reyes,USA,IL,B,Multi-ply,Juniors 20-25,M,82.5,185,,,,185,3
76.84,Damon Fabacher,USA,LA,B,Multi-ply,Juniors 20-25,M,82.5,125,,,,125,4
89.9,Rick Marrama,USA,MA,B,Multi-ply,Juniors 20-25,M,90,252.5,,,,252.5,1
89.36,Greg Gibson,USA,CA,B,Multi-ply,Juniors 20-25,M,90,235,,,,235,2
89.27,Jared Bachmeier,USA,NV,B,Multi-ply,Juniors 20-25,M,90,227.5,,,,227.5,3
88.99,Vic Karpenko,USA,CA,B,Multi-ply,Juniors 20-25,M,90,200.5,,,,200.5,4
87.72,Michael Ross,USA,NV,B,Multi-ply,Juniors 20-25,M,90,200,,,,200,5
88,David Militana,USA,TN,B,Multi-ply,Juniors 20-25,M,90,200,,,,200,6
89.27,Matt Bell,USA,IL,B,Multi-ply,Juniors 20-25,M,90,177.5,,,,177.5,7
89.45,Alex Georgeon,USA,OR,B,Multi-ply,Juniors 20-25,M,90,165,,,,165,8
88.72,Michael Minahan,USA,CA,B,Multi-ply,Juniors 20-25,M,90,147.5,,,,147.5,9
87.63,Landon Cross,USA,IL,B,Multi-ply,Juniors 20-25,M,90,145,,,,145,10
99.88,Phil Davi,USA,CA,B,Multi-ply,Juniors 20-25,M,100,245,260,,,245,1
95.16,James De La Cruz,USA,ID,B,Multi-ply,Juniors 20-25,M,100,175,,,,175,2
109.13,Chris Senese,USA,AL,B,Multi-ply,Juniors 20-25,M,110,275,284,,,275,1
107.41,Jonathan Leftwich,USA,AL,B,Multi-ply,Juniors 20-25,M,110,227.5,,,,227.5,2
104.96,Macayn May,USA,IL,B,Multi-ply,Juniors 20-25,M,110,157.5,,,,157.5,3
114.12,Joseph Gast,USA,WA,B,Multi-ply,Juniors 20-25,M,117.5,273.5,,,,273.5,1
116.75,Ryan Vessey,USA,WA,B,Multi-ply,Juniors 20-25,M,117.5,202.5,,,,202.5,2
110.86,Josh Nelson,USA,AL,B,Multi-ply,Juniors 20-25,M,117.5,195,,,,195,3
117.3,Armando Gonzalez,USA,CA,B,Multi-ply,Juniors 20-25,M,117.5,192.5,,,,192.5,4
114.85,Jesse Ward,USA,WA,B,Multi-ply,Juniors 20-25,M,117.5,160,,,,160,5
122.74,David McCoy,USA,IL,B,Multi-ply,Juniors 20-25,M,125,227.5,,,,227.5,1
124.74,Jerry Pritchett,USA,AZ,B,Multi-ply,Juniors 20-25,M,125,227.5,,,,227.5,2
123.74,David Bergman,USA,IL,B,Multi-ply,Juniors 20-25,M,125,165,,,,165,3
122.29,Roger James,USA,UT,B,Multi-ply,Juniors 20-25,M,125,152.5,,,,152.5,4
118.02,Howard Shepperson,USA,UT,B,Multi-ply,Juniors 20-25,M,125,145,,,,145,5
134.35,Michael Womack,USA,CA,B,Multi-ply,Juniors 20-25,M,140,367.5,375,,,367.5,1
145.06,Terry Corwin,USA,OR,B,Multi-ply,Juniors 20-25,M,140+,318,,,,318,1
161.75,Leo Scott,USA,CA,B,Multi-ply,Juniors 20-25,M,140+,217.5,,,,217.5,2
58.69,Erica Haislar,USA,IL,B,Multi-ply,Juniors 20-25,F,60,92.5,,,,92.5,1
59.78,Sara Ansberry,USA,CA,B,Multi-ply,Juniors 20-25,F,60,65,,,,65,2
67.49,Christie Hansen,USA,OR,B,Multi-ply,Juniors 20-25,F,67.5,102.5,,,,102.5,1
81.83,Kelly Womack,USA,CA,B,Multi-ply,Juniors 20-25,F,82.5,160.5,,,,160.5,1
78.56,Jamie Tanner,USA,KS,B,Multi-ply,Juniors 20-25,F,82.5,115,,,,115,2
86.45,Lauren Vaterlaus,USA,CA,B,Multi-ply,Juniors 20-25,F,90,93,,,,93,1
103.42,Jessica Brooks,USA,WA,B,Multi-ply,Juniors 20-25,F,90+,105,,,,105,1
89.99,Francesca Mangaoang-Brodine,USA,WA,B,Multi-ply,Juniors 20-25,F,90,67.5,,,,67.5,2
65.95,David Edmondson,USA,UT,B,Multi-ply,Law-Fire 40-47,F,67.5,150,155,,,150,1
89.18,LeeRoy Banks,USA,IL,B,Multi-ply,Law-Fire 40-47,M,90,205,,,,205,1
99.7,Michael Kuzmack,USA,CA,B,Multi-ply,Law-Fire 40-47,M,100,197.5,,,,197.5,1
137.62,Jaime Tovar,USA,CA,B,Multi-ply,Law-Fire 40-47,M,140,272.5,,,,272.5,1
159.94,Dave Marchant,USA,UT,B,Multi-ply,Law-Fire 40-47,M,140+,295,,,,295,1
95.71,Mike Berteaux,USA,CO,B,Multi-ply,Law-Fire 48+,M,100,225,,,,225,1
98.52,Jeffrey Allen Jones,USA,NV,B,Multi-ply,Law-Fire 48+,M,100,190,,,,190,2
106.78,Mike McKenzie,USA,CO,B,Multi-ply,Law-Fire 48+,M,110,242.5,,,,242.5,1
123.29,Ken Eyre,USA,UT,B,Multi-ply,Law-Fire 48+,M,125,,,,,,DQ
124.01,Walt Faulkner,USA,CA,B,Multi-ply,Law-Fire 48+,M,125,,,,,,DQ
119.93,Roger Ryan,USA,IL,B,Multi-ply,Law-Fire 48+,M,125,272.5,,,,272.5,1
119.11,Ron Hood,USA,OK,B,Multi-ply,Law-Fire 48+,M,125,245,,,,245,2
138.98,Michal Johnson,USA,CA,B,Multi-ply,Law-Fire 48+,M,140,,,,,,DQ
129.46,Bruce Sabin,USA,CA,B,Multi-ply,Law-Fire 48+,M,140,250,,,,250,1
49.35,Shauna Ferguson,USA,WA,B,Multi-ply,Law-Fire 40-47,F,52,52.5,,,,52.5,1
54.16,Lynda Christopher,USA,AZ,B,Multi-ply,Law-Fire 40-47,F,56,55,,,,55,1
65.95,David Edmondson,USA,UT,B,Multi-ply,Law-Fire Open,M,67.5,150,155,,,150,1
80.47,Darren Carr,USA,UT,B,Multi-ply,Law-Fire Open,M,82.5,192.5,,,,192.5,1
86.55,Mike Ioannou,USA,MA,B,Multi-ply,Law-Fire Open,M,90,182.5,,,,182.5,1
109.32,Jason Jackson #7,USA,OK,B,Multi-ply,Law-Fire Open,M,110,340,,,,340,1
116.39,Tim Prince,USA,UT,B,Multi-ply,Law-Fire Open,M,117.5,205,,,,205,1
116.12,Mike Blankenship,USA,UT,B,Multi-ply,Law-Fire Open,M,117.5,198,,,,198,2
124.19,Jeffrey Begue,USA,OH,B,Multi-ply,Law-Fire Open,M,125,273,,,,273,1
122.29,Carl Wimmer,USA,UT,B,Multi-ply,Law-Fire Open,M,125,237.5,,,,237.5,2
141.61,Keola Kekaulike,USA,HI,B,Multi-ply,Law-Fire Open,M,140+,250,,,,250,1
151.05,Chane Cline,USA,OH,B,Multi-ply,Law-Fire Open,M,140+,242.5,,,,242.5,2
54.16,Lynda Christopher,USA,AZ,B,Multi-ply,Law-Fire Open,F,56,55,,,,55,1
58.06,Laurie Lamp,USA,WA,B,Multi-ply,Law-Fire Open,M,60,85,,,,85,1
74.93,Richard Anderson,USA,AL,B,Multi-ply,Law-Fire Submasters,M,75,137.5,,,,137.5,1
97.07,John DeLuca,USA,CA,B,Multi-ply,Law-Fire Submasters,M,100,202.5,,,,202.5,1
108.05,Frank Wakakuwa,USA,HI,B,Multi-ply,Law-Fire Submasters,M,110,282.5,,,,282.5,1
58.06,Laurie Lamp,USA,WA,B,Multi-ply,Law-Fire Submasters,M,60,85,,,,85,1
67.49,Charles Venturella,USA,PA,B,Multi-ply,Masters 40-46,M,67.5,178,,,,178,1
74.93,Sakari Selkäinaho,Finland,,B,Multi-ply,Masters 40-46,M,75,190,,,,190,1
74.03,Andrew Somera,USA,WA,B,Multi-ply,Masters 40-46,M,75,167.5,,,,167.5,2
82.19,Rolando Espinoza,USA,TX,B,Multi-ply,Masters 40-46,M,82.5,,,,,,DQ
81.47,Bob Levering,USA,CA,B,Multi-ply,Masters 40-46,M,82.5,,,,,,DQ
80.38,Dean Reiman,USA,MN,B,Multi-ply,Masters 40-46,M,82.5,200,,,,200,1
80.47,Darren Carr,USA,UT,B,Multi-ply,Masters 40-46,M,82.5,192.5,,,,192.5,2
78.56,Mark Lo,USA,HI,B,Multi-ply,Masters 40-46,M,82.5,160,,,,160,3
82.01,Fred Stokes,USA,MI,B,Multi-ply,Masters 40-46,M,82.5,152.5,,,,152.5,4
80.38,Vilmar Oliveira,Brazil,,B,Multi-ply,Masters 40-46,M,82.5,150,,,,150,5
80.1,David Brekke,USA,CO,B,Multi-ply,Masters 40-46,M,82.5,125,,,,125,6
88.72,Charles Phillips,USA,AL,B,Multi-ply,Masters 40-46,M,90,,,,,,DQ
86.64,Ed Morishima Jr,USA,HI,B,Multi-ply,Masters 40-46,M,90,255.5,,,,255.5,1
89.18,LeeRoy Banks,USA,IL,B,Multi-ply,Masters 40-46,M,90,215,,,,215,2
85.91,Brian Baertlein,USA,OR,B,Multi-ply,Masters 40-46,M,90,200,,,,200,3
86.55,Mike Ioannou,USA,MA,B,Multi-ply,Masters 40-46,M,90,182.5,,,,182.5,4
88.9,Frank Johnson,USA,AZ,B,Multi-ply,Masters 40-46,M,90,177.5,,,,177.5,5
88.18,Darrell Horn,USA,MI,B,Multi-ply,Masters 40-46,M,90,170,,,,170,6
87.09,Eric Georgeon,USA,OR,B,Multi-ply,Masters 40-46,M,90,150,,,,150,7
99.88,Gary Lands,USA,GA,B,Multi-ply,Masters 40-46,M,100,,,,,,DQ
99.88,Rodney Womack,USA,TX,B,Multi-ply,Masters 40-46,M,100,,,,,,DQ
99.79,Kenneth Millrany,USA,TN,B,Multi-ply,Masters 40-46,M,100,273,,,,273,1
98.97,Doug Haycraft,USA,IL,B,Multi-ply,Masters 40-46,M,100,252.5,,,,252.5,2
98.88,Juha Pukkila,Finland,,B,Multi-ply,Masters 40-46,M,100,217.5,,,,217.5,3
98.07,Mike Smothers,USA,IL,B,Multi-ply,Masters 40-46,M,100,215,,,,215,4
98.16,Tom Pernu,USA,MN,B,Multi-ply,Masters 40-46,M,100,197.5,,,,197.5,5
98.34,Mike DeGennaro,USA,CA,B,Multi-ply,Masters 40-46,M,100,185,,,,185,6
98.43,Kent Doerfler,USA,OR,B,Multi-ply,Masters 40-46,M,100,170,,,,170,7
103.87,Ed Wilkinson,USA,TX,B,Multi-ply,Masters 40-46,M,110,290,,,,290,1
108.23,Russ Kitani,USA,NV,B,Multi-ply,Masters 40-46,M,110,288,,,,288,2
107.32,George Phipps,USA,NV,B,Multi-ply,Masters 40-46,M,110,195,,,,195,3
116.21,Terry Putman,USA,OK,B,Multi-ply,Masters 40-46,M,117.5,,,,,,DQ
117.3,Rich Ludlam,USA,CA,B,Multi-ply,Masters 40-46,M,117.5,275,,,,275,1
114.31,Darwin English,USA,NV,B,Multi-ply,Masters 40-46,M,117.5,243.5,,,,243.5,2
113.13,Todd Christensen,USA,WA,B,Multi-ply,Masters 40-46,M,117.5,242.5,,,,242.5,3
114.03,Rick Soland,USA,WA,B,Multi-ply,Masters 40-46,M,117.5,220,,,,220,4
116.85,Joseph McMurray,USA,CA,B,Multi-ply,Masters 40-46,M,117.5,192.5,,,,192.5,5
112.31,Eric Knudsen,USA,MN,B,Multi-ply,Masters 40-46,M,117.5,177.5,,,,177.5,6
122.83,Jeff Peshek,USA,OH,B,Multi-ply,Masters 40-46,M,125,,,,,,DQ
122.65,Ron West,USA,WA,B,Multi-ply,Masters 40-46,M,125,197.5,,,,197.5,1
131.27,Jim Presley,USA,CA,B,Multi-ply,Masters 40-46,M,140,260,,,,260,1
136.98,John Hudson,USA,IL,B,Multi-ply,Masters 40-46,M,140,260,,,,260,2
157.76,Jim Sheffield,USA,CA,B,Multi-ply,Masters 40-46,M,140+,,,,,,DQ
159.94,Dave Marchant,USA,UT,B,Multi-ply,Masters 40-46,M,140+,295,,,,295,1
142.25,Paul Ratsch,USA,WA,B,Multi-ply,Masters 40-46,M,140+,252.5,,,,252.5,2
59.78,Gary Bobrovitz,Canada,,B,Multi-ply,Masters 47-53,M,60,120,,,,120,1
67.49,Alfredo Evangelista,USA,OR,B,Multi-ply,Masters 47-53,M,67.5,,,,,,DQ
74.93,Marloe Mosley,USA,TX,B,Multi-ply,Masters 47-53,M,75,122.5,,,,122.5,1
81.83,Perry Plush,USA,WA,B,Multi-ply,Masters 47-53,M,82.5,160,,,,160,1
81.74,Ron McNeely,USA,AL,B,Multi-ply,Masters 47-53,M,82.5,137.5,,,,137.5,2
81.65,Anthony Kokell,USA,NY,B,Multi-ply,Masters 47-53,M,82.5,107.5,,,,107.5,3
89.99,Jody Woods,USA,CA,B,Multi-ply,Masters 47-53,M,90,215,,,,215,1
88,Ernest Reyes,USA,UT,B,Multi-ply,Masters 47-53,M,90,190,,,,190,2
89.72,Greg Alves,USA,CA,B,Multi-ply,Masters 47-53,M,90,188,,,,188,3
88.72,Mike McCormack,USA,CA,B,Multi-ply,Masters 47-53,M,90,185.5,,,,185.5,4
88.81,Brian Welker,USA,TX,B,Multi-ply,Masters 47-53,M,90,180,,,,180,5
87.82,David Bertier,USA,CA,B,Multi-ply,Masters 47-53,M,90,142.5,,,,142.5,6
87.27,William Stirling,Canada,,B,Multi-ply,Masters 47-53,M,90,140,,,,140,7
97.89,Clinton Sims,USA,CA,B,Multi-ply,Masters 47-53,M,100,232.5,,,,232.5,1
95.71,Mike Berteaux,USA,CO,B,Multi-ply,Masters 47-53,M,100,225,,,,225,2
98.07,Nick Dwinell,USA,OK,B,Multi-ply,Masters 47-53,M,100,223,,,,223,3
97.34,Don Rygh,USA,MN,B,Multi-ply,Masters 47-53,M,100,217.5,,,,217.5,4
105.6,Marv Landon,USA,OR,B,Multi-ply,Masters 47-53,M,110,,,,,,DQ
109.59,Rob Carbo,USA,CA,B,Multi-ply,Masters 47-53,M,110,235,,,,235,1
105.87,Dave Henderson,USA,OR,B,Multi-ply,Masters 47-53,M,110,230,,,,230,2
109.23,Daniel Prevatt,USA,FL,B,Multi-ply,Masters 47-53,M,110,190,,,,190,3
107.23,Ronald Proctor,USA,GA,B,Multi-ply,Masters 47-53,M,110,185,,,,185,4
108.68,Gary Stevens,USA,CA,B,Multi-ply,Masters 47-53,M,110,167.5,,,,167.5,5
112.67,Roland Sanchez,USA,CA,B,Multi-ply,Masters 47-53,M,117.5,,,,,,DQ
117.39,Kevin Smith,USA,WA,B,Multi-ply,Masters 47-53,M,117.5,,,,,,DQ
117.03,Forest Hofer,USA,WA,B,Multi-ply,Masters 47-53,M,117.5,235,,,,235,1
117.21,Mike De Witt,USA,WA,B,Multi-ply,Masters 47-53,M,117.5,205,,,,205,2
116.3,Jack Romano,USA,GA,B,Multi-ply,Masters 47-53,M,117.5,162.5,,,,162.5,3
122.47,Jeff Fahrenbruch,USA,AZ,B,Multi-ply,Masters 47-53,M,125,,,,,,DQ
122.47,Ken Eyre,USA,UT,B,Multi-ply,Masters 47-53,M,125,205,,,,205,1
139.89,Joe Mickelson,USA,WA,B,Multi-ply,Masters 47-53,M,140,240,,,,240,1
133.54,Sam Pecktol,USA,OR,B,Multi-ply,Masters 47-53,M,140,235,,,,235,2
151.05,Pete Lattanzi,USA,TX,B,Multi-ply,Masters 47-53,M,140+,,,,,,DQ
154.67,John Minahan,USA,CA,B,Multi-ply,Masters 47-53,M,140+,237.5,,,,237.5,1
149.87,Leo Contreras,USA,CA,B,Multi-ply,Masters 47-53,M,140+,195,,,,195,2
55.16,Robert Gill,USA,OH,B,Multi-ply,Masters 54-60,M,56,102.5,,,,102.5,1
74.03,Moses Timbal,USA,HI,B,Multi-ply,Masters 54-60,M,75,125,,,,125,1
73.03,Dennis Cain,USA,NV,B,Multi-ply,Masters 54-60,M,75,115,,,,115,2
73.21,Guy Brenner,USA,LA,B,Multi-ply,Masters 54-60,M,75,110,,,,110,3
82.46,Bob Hill,USA,OR,B,Multi-ply,Masters 54-60,M,82.5,,,,,,DQ
81.56,Randy Barr,USA,IL,B,Multi-ply,Masters 54-60,M,82.5,172.5,,,,172.5,1
82.46,Jaime Alvarez,USA,CA,B,Multi-ply,Masters 54-60,M,82.5,157.5,,,,157.5,2
81.92,Rich Tsutsui,USA,CA,B,Multi-ply,Masters 54-60,M,82.5,152.5,,,,152.5,3
81.83,Ron Jones,USA,AL,B,Multi-ply,Masters 54-60,M,82.5,125,,,,125,4
81.28,Kelly Cain,USA,NV,B,Multi-ply,Masters 54-60,M,82.5,92.5,,,,92.5,5
79.2,Skye Wolf MacGregor,USA,OR,B,Multi-ply,Masters 54-60,M,82.5,72.5,,,,72.5,6
87.63,Bob Hochstein,USA,IL,B,Multi-ply,Masters 54-60,M,90,,,,,,DQ
88.27,Dan Swift,USA,IL,B,Multi-ply,Masters 54-60,M,90,195.5,,,,195.5,1
89.54,Joseph Parsons,USA,OK,B,Multi-ply,Masters 54-60,M,90,167.5,,,,167.5,2
88.27,Godfrey Holzinger,USA,WA,B,Multi-ply,Masters 54-60,M,90,165,,,,165,3
89.45,Jarnail Singh Birring,UK,,B,Multi-ply,Masters 54-60,M,90,160,,,,160,4
98.52,Dave Marba,USA,CA,B,Multi-ply,Masters 54-60,M,100,,,,,,DQ
96.8,Donald Madere,USA,LA,B,Multi-ply,Masters 54-60,M,100,170,,,,170,1
97.07,Greg Fay,USA,MI,B,Multi-ply,Masters 54-60,M,100,142.5,,,,142.5,2
120.2,Colin Bonneau,Canada,,B,Multi-ply,Masters 54-60,M,125,237.5,,,,237.5,1
122.38,Robert Lincoln,USA,CA,B,Multi-ply,Masters 54-60,M,125,212.5,,,,212.5,2
123.01,Ronald Schubert,USA,MN,B,Multi-ply,Masters 54-60,M,125,165,,,,165,3
123.01,Doug Knapp,USA,CA,B,Multi-ply,Masters 54-60,M,125,160,,,,160,4
135.71,Austin Webb,USA,AR,B,Multi-ply,Masters 54-60,M,140,210,,,,210,1
160.57,Randy Patterson,USA,OR,B,Multi-ply,Masters 54-60,M,140+,277.5,,,,277.5,1
157.49,Peter Herdt,USA,ID,B,Multi-ply,Masters 54-60,M,140+,177.5,,,,177.5,2
70.76,Thomas English,USA,NV,B,Multi-ply,Masters 61-67,M,75,105,,,,105,1
71.76,Bob Nussear,USA,FL,B,Multi-ply,Masters 61-67,M,75,95,,,,95,2
71.94,Arlindo da Silva,Brazil,,B,Multi-ply,Masters 61-67,M,75,95,,,,95,3
81.83,George Hawkins,USA,CA,B,Multi-ply,Masters 61-67,M,82.5,,,,,,DQ
82.01,Rudy Lozano,USA,CA,B,Multi-ply,Masters 61-67,M,82.5,176,,,,176,1
82.19,Jerry McCamman,USA,CA,B,Multi-ply,Masters 61-67,M,82.5,137.5,,,,137.5,2
88.36,Olício dos Santos Filho,Brazil,,B,Multi-ply,Masters 61-67,M,90,160,,,,160,1
89.99,Bob Bassman,USA,TX,B,Multi-ply,Masters 61-67,M,90,157.5,,,,157.5,2
87.54,Joe Beteta,USA,OR,B,Multi-ply,Masters 61-67,M,90,140,,,,140,3
89.18,Roy Eriksen,USA,NV,B,Multi-ply,Masters 61-67,M,90,137.5,,,,137.5,4
89.72,Tom Haggenmiller,USA,MN,B,Multi-ply,Masters 61-67,M,90,127.5,,,,127.5,5
98.88,Mickey Glasco,USA,GA,B,Multi-ply,Masters 61-67,M,100,145,,,,145,1
94.08,John Herbein,USA,PA,B,Multi-ply,Masters 61-67,M,100,110,,,,110,2
103.78,Daniel Smith III,USA,CA,B,Multi-ply,Masters 61-67,M,110,192.5,,,,192.5,1
108.86,Richard Zareck,USA,FL,B,Multi-ply,Masters 61-67,M,110,192.5,,,,192.5,2
117.39,Ed Acey,USA,UT,B,Multi-ply,Masters 61-67,M,117.5,185,,,,185,1
114.31,Mike Bonifield,USA,CA,B,Multi-ply,Masters 61-67,M,117.5,152.5,,,,152.5,2
139.16,Robert O. Smith,Canada,,B,Multi-ply,Masters 61-67,M,140,237.5,,,,237.5,1
128.37,Manuel Herrera,USA,UT,B,Multi-ply,Masters 61-67,M,140,175,,,,175,2
161.84,Donald James,USA,OR,B,Multi-ply,Masters 61-67,M,140+,235.5,,,,235.5,1
157.76,Ed Sheets,USA,IN,B,Multi-ply,Masters 61-67,M,140+,137.5,,,,137.5,2
67.04,Larry Vincent,USA,OR,B,Multi-ply,Masters 68-74,M,67.5,115,,,,115,1
73.75,Harold Hager,USA,AR,B,Multi-ply,Masters 68-74,M,75,105,,,,105,1
74.57,Bill Tinkler,USA,FL,B,Multi-ply,Masters 68-74,M,75,100,,,,100,2
79.29,T. C. Lewis,USA,AR,B,Multi-ply,Masters 68-74,M,82.5,117.5,,,,117.5,1
79.83,Richard Simon,USA,CA,B,Multi-ply,Masters 68-74,M,82.5,115,,,,115,2
76.02,Charles Vause,USA,HI,B,Multi-ply,Masters 68-74,M,82.5,102.5,,,,102.5,3
81.65,John McEwen,USA,CA,B,Multi-ply,Masters 68-74,M,82.5,102.5,,,,102.5,4
89.72,Billy Lumpkin,USA,OK,B,Multi-ply,Masters 68-74,M,90,,,,,,DQ
85.91,Nick Di Liddo,USA,CA,B,Multi-ply,Masters 68-74,M,90,110,,,,110,1
99.52,Harold Smith,USA,MT,B,Multi-ply,Masters 68-74,M,100,155,,,,155,1
98.25,Jerry Gladson,USA,WA,B,Multi-ply,Masters 68-74,M,100,112.5,,,,112.5,2
91.99,Donald Lovas,USA,CA,B,Multi-ply,Masters 68-74,M,100,102.5,,,,102.5,3
104.78,Jack Peters,USA,CA,B,Multi-ply,Masters 68-74,M,110,95,,,,95,1
117.3,Danny Herrera,USA,CA,B,Multi-ply,Masters 68-74,M,117.5,190,,,,190,1
125.1,Gary E. Johnson,USA,WA,B,Multi-ply,Masters 68-74,M,140,125,,,,125,1
68.76,Robert Cortes,USA,CA,B,Multi-ply,Masters 75-79,M,75,110,,,,110,1
,Robert Fornachon,USA,CA,B,Multi-ply,Masters 75-79,M,75,92.5,,,,92.5,2
71.49,Jim Schall,USA,WA,B,Multi-ply,Masters 75-79,M,75,75,,,,75,3
80.29,Charles Ferrando,USA,CA,B,Multi-ply,Masters 75-79,M,82.5,125,,,,125,1
97.89,Eugene L Miranda,USA,CA,B,Multi-ply,Masters 75-79,M,100,115,,,,115,1
66.32,Arthur Whinston,USA,OR,B,Multi-ply,Masters 80-84,M,67.5,45,,,,45,1
70.03,Sonny Ronolo,USA,HI,B,Multi-ply,Masters 80-84,M,75,107.5,,,,107.5,1
78.74,Bladen McClelland,USA,MI,B,Multi-ply,Masters 80-84,M,82.5,85,90.5,,,85,1
76.48,Donald Dreyer,USA,LA,B,Multi-ply,Masters 80-84,M,82.5,65,,,,65,2
89.72,Edwin Free Jr,USA,TN,B,Multi-ply,Masters 80-84,M,90,62.5,,,,62.5,1
62.51,Jack Heizelman,USA,TX,B,Multi-ply,Masters 85-89,M,67.5,60,,,,60,1
43.54,Christine Moorman,USA,WA,B,Multi-ply,Masters 40-46,F,44,73,,,,73,1
43.91,Sandra Herring,USA,GA,B,Multi-ply,Masters 40-46,F,44,57.5,,,,57.5,2
44.81,Alexandra Vallejo,USA,CA,B,Multi-ply,Masters 40-46,F,48,,,,,,DQ
47.45,Desiree Brown,USA,CA,B,Multi-ply,Masters 40-46,F,48,82.5,,,,82.5,1
51.07,Claudia Salo,USA,CA,B,Multi-ply,Masters 40-46,F,52,77.5,,,,77.5,1
49.35,Shauna Ferguson,USA,WA,B,Multi-ply,Masters 40-46,F,52,52.5,,,,52.5,2
55.16,Alison Barnhill,USA,CA,B,Multi-ply,Masters 40-46,F,56,75,,,,75,1
57.47,Donna Madere-Hogg,USA,LA,B,Multi-ply,Masters 40-46,F,60,55,,,,55,1
65.32,Silvia Maher,USA,CA,B,Multi-ply,Masters 40-46,F,67.5,,,,,,DQ
61.05,Sandy Gomez-Leon,USA,WA,B,Multi-ply,Masters 40-46,F,67.5,107.5,,,,107.5,1
73.21,Sheri Klocke,USA,OR,B,Multi-ply,Masters 40-46,F,75,92.5,,,,92.5,1
80.47,Annette Sozzi,USA,CA,B,Multi-ply,Masters 40-46,F,82.5,110.5,,,,110.5,1
80.92,Janet Hase,USA,CA,B,Multi-ply,Masters 40-46,F,82.5,102.5,,,,102.5,2
82.46,Kari Sabin,USA,FL,B,Multi-ply,Masters 40-46,F,82.5,102.5,,,,102.5,3
82.01,Pamela Michaels-Olson,USA,WA,B,Multi-ply,Masters 40-46,F,82.5,78,,,,78,4
80.38,Dee Jaye Backiel,USA,WA,B,Multi-ply,Masters 40-46,F,82.5,77.5,,,,77.5,5
76.11,Barbara Workman,USA,OR,B,Multi-ply,Masters 40-46,F,82.5,70,,,,70,6
88.99,Susan Jackson,USA,WA,B,Multi-ply,Masters 40-46,F,90,115,,,,115,1
93.08,Jill Arnow,USA,WA,B,Multi-ply,Masters 40-46,F,90+,110,,,,110,1
104.87,Stacie Downs,USA,MI,B,Multi-ply,Masters 40-46,F,90+,105.5,,,,105.5,2
50.08,Ita Pantilat,USA,WA,B,Multi-ply,Masters 47-53,F,52,90,,,,90,1
55.16,Denise Ruff,USA,OR,B,Multi-ply,Masters 47-53,F,56,85,,,,85,1
58.33,Susan Rosenquist,USA,CA,B,Multi-ply,Masters 47-53,F,60,60,,,,60,1
66.32,MaryAnn VanDam,USA,CA,B,Multi-ply,Masters 47-53,F,67.5,100,,,,100,1
65.32,Kim Richardson,USA,OR,B,Multi-ply,Masters 47-53,F,67.5,47.5,,,,47.5,2
70.58,Nancy Carpenter,Canada,,B,Multi-ply,Masters 47-53,F,75,72.5,,,,72.5,1
76.57,Cindy Weber,USA,TN,B,Multi-ply,Masters 47-53,F,82.5,,,,,,DQ
82.46,Marilyn Lewis,USA,WA,B,Multi-ply,Masters 47-53,F,82.5,72.5,,,,72.5,1
79.65,Jane Stabile,USA,MA,B,Multi-ply,Masters 47-53,F,82.5,65,,,,65,2
86.45,Kathy Cash,USA,OR,B,Multi-ply,Masters 47-53,F,90,85,,,,85,1
105.41,Sue Vaterlaus,USA,CA,B,Multi-ply,Masters 47-53,F,90+,112.5,115,,,112.5,1
100.97,Margie Huston,USA,WA,B,Multi-ply,Masters 47-53,F,90+,92.5,,,,92.5,2
67.49,Barbara Anderson,USA,WA,B,Multi-ply,Masters 54-60,F,67.5,72.5,,,,72.5,1
63.68,Lori Lastufka,USA,WA,B,Multi-ply,Masters 54-60,F,67.5,60,,,,60,2
89.18,Karen Polansky,USA,CA,B,Multi-ply,Masters 54-60,F,90,77.5,,,,77.5,1
94.44,Delia Chilgren,USA,CA,B,Multi-ply,Masters 54-60,F,90+,47.5,,,,47.5,1
47.99,Betty Lafferty,USA,AL,B,Multi-ply,Masters 61-67,F,48,67.5,68.5,,,67.5,1
68.22,Mary Coffey,USA,LA,B,Multi-ply,Masters 61-67,F,75,40,,,,40,1
80.56,Pat Robey,USA,WA,B,Multi-ply,Masters 61-67,F,82.5,75,,,,75,1
54.43,Rae McEwen,USA,CA,B,Multi-ply,Masters 68-74,F,56,40,,,,40,1
73.84,Grace Cloninger,USA,NV,B,Multi-ply,Masters 68-74,F,75,45,,,,45,1
59.51,Melicent Whinston,USA,OR,B,Multi-ply,Masters 75-79,F,60,32.5,,,,32.5,1
96.25,Gloria Mighell,USA,OR,B,Multi-ply,Masters 75-79,F,90+,36,,,,36,1
55.34,Van Williams,USA,OK,B,Multi-ply,Open,M,56,110.5,,,,110.5,1
59.78,Gary Bobrovitz,Canada,,B,Multi-ply,Open,M,60,120,,,,120,1
66.5,Jason Imamura,USA,HI,B,Multi-ply,Open,M,67.5,185,,,,185,1
67.49,Charles Venturella,USA,PA,B,Multi-ply,Open,M,67.5,178,,,,178,2
67.31,Alfredo Evangelista,USA,OR,B,Multi-ply,Open,M,67.5,177.5,,,,177.5,3
63.87,Jason Arnold,USA,CA,B,Multi-ply,Open,M,67.5,157.5,,,,157.5,4
67.22,Mauricio Mendoza,Mexico,,B,Multi-ply,Open,M,67.5,132.5,,,,132.5,5
73.94,Michael Hara,USA,CA,B,Multi-ply,Open,M,75,242.5,245,,,242.5,1
74.48,Ray Hickman,USA,OR,B,Multi-ply,Open,M,75,235,243,,,235,2
74.48,Brandon Leming,USA,TN,B,Multi-ply,Open,M,75,210,,,,210,3
74.93,Sakari Selkäinaho,Finland,,B,Multi-ply,Open,M,75,190,,,,190,4
81.56,Ryan Harris,USA,OR,B,Multi-ply,Open,M,82.5,,,,,,DQ
82.46,Bob Hill,USA,OR,B,Multi-ply,Open,M,82.5,,,,,,DQ
81.65,Kim Päivöke,Finland,,B,Multi-ply,Open,M,82.5,212.5,,,,212.5,1
78.74,Keith Daniels,USA,HI,B,Multi-ply,Open,M,82.5,205.5,,,,205.5,2
82.1,Eric Ansberry,USA,CA,B,Multi-ply,Open,M,82.5,137.5,,,,137.5,3
86.64,Ed Morishima Jr,USA,HI,B,Multi-ply,Open,M,90,255.5,,,,255.5,1
89.9,Rick Marrama,USA,MA,B,Multi-ply,Open,M,90,252.5,,,,252.5,2
84.55,Eric Millburn,USA,UT,B,Multi-ply,Open,M,90,242.5,,,,242.5,3
89.36,Greg Gibson,USA,CA,B,Multi-ply,Open,M,90,235,,,,235,4
89.81,Coby Washburn,USA,TX,B,Multi-ply,Open,M,90,230,,,,230,5
89.27,Jared Bachmeier,USA,NV,B,Multi-ply,Open,M,90,227.5,,,,227.5,6
89.99,Jody Woods,USA,CA,B,Multi-ply,Open,M,90,215,,,,215,7
88.36,Olício dos Santos Filho,Brazil,,B,Multi-ply,Open,M,90,160,,,,160,8
91.72,Brant Bishop,USA,AL,B,Multi-ply,Open,M,100,227.5,,,,227.5,8
99.34,Matt LaMarque,USA,CA,B,Multi-ply,Open,M,100,,,,,,DQ
99.79,Kenneth Millrany,USA,TN,B,Multi-ply,Open,M,100,,,,,,DQ
99.43,Michael Green,USA,FL,B,Multi-ply,Open,M,100,275,280,,,275,1
99.88,Chad Matthews,USA,TX,B,Multi-ply,Open,M,100,270,,,,270,2
98.97,Doug Haycraft,USA,IL,B,Multi-ply,Open,M,100,263,,,,263,3
99.88,Joe Bianchi,USA,MA,B,Multi-ply,Open,M,100,262.5,,,,262.5,4
99.88,Phil Davi,USA,CA,B,Multi-ply,Open,M,100,245,260,,,245,5
97.34,Tatu Avola,Finland,,B,Multi-ply,Open,M,100,240,,,,240,6
97.25,Steve Pena,USA,CA,B,Multi-ply,Open,M,100,237.5,,,,237.5,7
98.88,Juha Pukkila,Finland,,B,Multi-ply,Open,M,100,217.5,,,,217.5,9
96.16,Evandro Casagrande,Brazil,,B,Multi-ply,Open,M,100,175,,,,175,10
109.77,Jason Jackson #7,USA,OK,B,Multi-ply,Open,M,110,360,,,,360,1
109.5,B. J. Dirk,USA,WA,B,Multi-ply,Open,M,110,292.5,,,,292.5,2
109.13,Chris Senese,USA,AL,B,Multi-ply,Open,M,110,275,284,,,275,3
102.51,Greg Stephens,USA,CA,B,Multi-ply,Open,M,110,272.5,287.5,,,272.5,4
109.68,John Boettger,USA,MO,B,Multi-ply,Open,M,110,255,,,,255,5
107.86,Mike Cordova,USA,UT,B,Multi-ply,Open,M,110,247.5,,,,247.5,6
108.41,Frank Schuetz,USA,VA,B,Multi-ply,Open,M,110,240,,,,240,7
109.68,Dan Tubridy,USA,CA,B,Multi-ply,Open,M,110,235,,,,235,8
115.03,Joseph Gast,USA,WA,B,Multi-ply,Open,M,117.5,,,,,,DQ
112.85,James Hunter,USA,CA,B,Multi-ply,Open,M,117.5,295,,,,295,1
115.85,Eric Wright,USA,TX,B,Multi-ply,Open,M,117.5,292.5,,,,292.5,2
117.12,Jason Laskowski,USA,TX,B,Multi-ply,Open,M,117.5,292.5,,,,292.5,3
114.85,Scott Hoekstra,USA,CA,B,Multi-ply,Open,M,117.5,265,,,,265,4
117.3,Jani Toivo Kristian Ihalainen,Finland,,B,Multi-ply,Open,M,117.5,265,,,,265,5
113.49,Mike Desrosiers,USA,AZ,B,Multi-ply,Open,M,117.5,257.5,,,,257.5,6
117.03,Forest Hofer,USA,WA,B,Multi-ply,Open,M,117.5,235,,,,235,7
123.2,Jerry Pritchett,USA,AZ,B,Multi-ply,Open,M,125,,,,,,DQ
122.83,Jeff Peshek,USA,OH,B,Multi-ply,Open,M,125,312.5,,,,312.5,1
121.93,Patrick Holloway,USA,AZ,B,Multi-ply,Open,M,125,282.5,,,,282.5,2
124.19,Jeffrey Begue,USA,OH,B,Multi-ply,Open,M,125,273,,,,273,3
121.38,David Freeland,USA,CA,B,Multi-ply,Open,M,125,265,,,,265,4
123.29,Thomas Kesling,USA,TN,B,Multi-ply,Open,M,125,255.5,,,,255.5,5
118.39,Matt Myers,USA,ID,B,Multi-ply,Open,M,125,255,,,,255,6
123.29,Norman Rial,USA,CA,B,Multi-ply,Open,M,125,250,,,,250,7
124.01,Shane Palmer,USA,ID,B,Multi-ply,Open,M,125,237.5,,,,237.5,8
123.74,Brandon Bankston,USA,LA,B,Multi-ply,Open,M,125,230,,,,230,9
135.71,Michael Womack,USA,CA,B,Multi-ply,Open,M,140,,,,,,DQ
138.35,Tiny Meeker,USA,TX,B,Multi-ply,Open,M,140,395,,,,395,1
137.08,Steve Wong,USA,CA,B,Single-ply,Open,M,140,370,,,,370,2
136.98,John Hudson,USA,IL,B,Multi-ply,Open,M,140,260,,,,260,3
139.89,Joe Mickelson,USA,WA,B,Multi-ply,Open,M,140,240,,,,240,4
138.98,Michal Johnson,USA,CA,B,Multi-ply,Open,M,140,192.5,,,,192.5,5
199.58,Roy Bradshaw,USA,CA,B,Multi-ply,Open,M,140+,327.5,,,,327.5,1
145.06,Terry Corwin,USA,OR,B,Multi-ply,Open,M,140+,318,,,,318,2
157.94,James Crawford III,USA,WA,B,Multi-ply,Open,M,140+,295,,,,295,3
168.46,Vincent Eldridge,USA,WA,B,Multi-ply,Open,M,140+,232.5,,,,232.5,4
43.54,Christine Moorman,USA,WA,B,Multi-ply,Open,F,44,73,,,,73,1
47.45,Desiree Brown,USA,CA,B,Multi-ply,Open,F,48,82.5,,,,82.5,1
47.63,Sarah Moorman,USA,WA,B,Multi-ply,Open,F,48,55,,,,55,2
50.08,Ita Pantilat,USA,WA,B,Multi-ply,Open,F,52,90,,,,90,1
54.61,Deb Moretto,USA,MT,B,Multi-ply,Open,F,56,65,,,,65,1
53.98,Sarah Biddle,USA,IN,B,Multi-ply,Open,F,56,50,,,,50,2
59.96,Jeanne Watts,USA,CA,B,Multi-ply,Open,F,60,102.5,,,,102.5,1
59.87,Mary Ann Hobbs,USA,WA,B,Multi-ply,Open,F,60,85,,,,85,2
57.33,Deanna Hurlbert,USA,MI,B,Multi-ply,Open,F,60,77.5,,,,77.5,3
59.87,Penelope Villegas,Mexico,,B,Multi-ply,Open,F,60,67.5,,,,67.5,4
66.32,Virpi Pukkila,Finland,,B,Multi-ply,Open,F,67.5,127.5,,,,127.5,1
65.14,Elise Stickler,USA,NV,B,Multi-ply,Open,F,67.5,70,,,,70,3
67.4,Gina Gendotti,USA,CA,B,Multi-ply,Open,F,67.5,57.5,,,,57.5,4
64.05,Nikki Williams,USA,GA,B,Multi-ply,Open,F,67.5,102.5,105,,,102.5,2
72.48,Sabrina Armstrong,USA,CA,B,Multi-ply,Open,F,75,116,,,,116,1
67.9,Imelda Zamora Andujo,Mexico,,B,Multi-ply,Open,F,75,67.5,,,,67.5,2
79.38,Kelley Mahoney,USA,WA,B,Multi-ply,Open,F,82.5,105,115,,,105,1
77.47,Cindy Weber,USA,TN,B,Multi-ply,Open,F,82.5,90,,,,90,2
82.19,Abigail Biddle,USA,IN,B,Multi-ply,Open,F,82.5,62.5,,,,62.5,3
89.63,Hoku Nohara,USA,HI,B,Multi-ply,Open,F,90,142.5,,,,142.5,1
121.29,Kayla Taueli,USA,WA,B,Multi-ply,Open,F,90+,147.5,,,,147.5,1
101.24,Dawn Richards,USA,UT,B,Multi-ply,Open,F,90+,107.5,,,,107.5,2
104.05,Tina Riley,USA,CA,B,Multi-ply,Open,F,90+,97.5,,,,97.5,3
35.02,Jeff Berning,USA,NV,B,Multi-ply,Special Olympian,M,44,62.5,,,,62.5,1
55.7,Pao Thao,USA,CA,B,Multi-ply,Special Olympian,M,56,55,,,,55,1
55.43,Ever Renterol,USA,CA,B,Multi-ply,Special Olympian,M,56,35,,,,35,2
59.87,Raul Larin,USA,CA,B,Multi-ply,Special Olympian,M,60,35,,,,35,1
65.32,Jon Shapiro,USA,CA,B,Multi-ply,Special Olympian,M,67.5,120,,,,120,1
60.24,Mario Cabalka,USA,CA,B,Multi-ply,Special Olympian,M,67.5,95,,,,95,2
63.23,Tyler Truscelli,USA,CA,B,Multi-ply,Special Olympian,M,67.5,67.5,,,,67.5,3
66.22,Chuck Fowler,USA,NV,B,Multi-ply,Special Olympian,M,67.5,67.5,,,,67.5,4
64.95,Josh Shaw,USA,NV,B,Multi-ply,Special Olympian,M,67.5,52.5,,,,52.5,5
66.86,Dewey O'Keefe,USA,CA,B,Multi-ply,Special Olympian,M,67.5,52.5,,,,52.5,6
63.68,Joe Cisneros,USA,CA,B,Multi-ply,Special Olympian,M,67.5,42.5,,,,42.5,7
70.67,Cori Van Eck,USA,CA,B,Multi-ply,Special Olympian,M,75,77.5,,,,77.5,1
74.39,Douglass Hodges,USA,CA,B,Multi-ply,Special Olympian,M,75,67.5,,,,67.5,2
74.48,Arran Glass,USA,NV,B,Multi-ply,Special Olympian,M,75,60,,,,60,3
71.67,Mike Sirard,USA,CA,B,Multi-ply,Special Olympian,M,75,52.5,,,,52.5,4
74.3,Joey Lowery,USA,CA,B,Multi-ply,Special Olympian,M,75,52.5,,,,52.5,5
73.03,Dylan Anderson,USA,CA,B,Multi-ply,Special Olympian,M,75,50,,,,50,6
78.93,Michael McHugh,USA,CA,B,Multi-ply,Special Olympian,M,82.5,92.5,,,,92.5,1
79.83,Mark Powers,USA,CA,B,Multi-ply,Special Olympian,M,82.5,70,,,,70,2
76.57,Antwon Belfils,USA,CA,B,Multi-ply,Special Olympian,M,82.5,67.5,,,,67.5,3
76.84,Nick Denardo,USA,NV,B,Multi-ply,Special Olympian,M,82.5,62.5,,,,62.5,4
82.1,Patrick Acevez,USA,CA,B,Multi-ply,Special Olympian,M,82.5,62.5,,,,62.5,5
75.57,David Williams,USA,CA,B,Multi-ply,Special Olympian,M,82.5,57.5,,,,57.5,6
77.93,Shawn Stainbrook,USA,NV,B,Multi-ply,Special Olympian,M,82.5,52.5,,,,52.5,7
88.81,Richard Cha,USA,CA,B,Multi-ply,Special Olympian,M,90,72.5,,,,72.5,1
83.1,Scot Carter,USA,NV,B,Multi-ply,Special Olympian,M,90,60,,,,60,2
95.89,Tony Johnson,USA,CA,B,Multi-ply,Special Olympian,M,100,130,,,,130,1
94.44,Chris Dalton,USA,CA,B,Multi-ply,Special Olympian,M,100,100,,,,100,2
94.8,Zach Tichava,USA,CA,B,Multi-ply,Special Olympian,M,100,80,,,,80,3
91.44,Bob Brewer,USA,CA,B,Multi-ply,Special Olympian,M,100,65,,,,65,4
98.88,Robert Aranda,USA,CA,B,Multi-ply,Special Olympian,M,100,52.5,,,,52.5,5
93.62,Richard Hall,USA,CA,B,Multi-ply,Special Olympian,M,100,47.5,,,,47.5,6
93.98,Dennis Cooley,USA,CA,B,Multi-ply,Special Olympian,M,100,37.5,,,,37.5,7
107.77,Trevor Irwin,USA,CA,B,Multi-ply,Special Olympian,M,110,77.5,,,,77.5,1
105.96,James Sexton,USA,CA,B,Multi-ply,Special Olympian,M,110,70,,,,70,2
108.95,Mike La Bracque,USA,NV,B,Multi-ply,Special Olympian,M,110,55,,,,55,3
113.76,Bobby Lord,USA,TX,B,Multi-ply,Special Olympian,M,117.5,127.5,,,,127.5,1
114.21,Jeffrey Scollard,USA,CA,B,Multi-ply,Special Olympian,M,117.5,77.5,,,,77.5,2
116.03,Jason Souza,USA,CA,B,Multi-ply,Special Olympian,M,117.5,67.5,,,,67.5,3
114.4,Caleb Tombs,USA,CA,B,Multi-ply,Special Olympian,M,117.5,62.5,,,,62.5,4
119.29,Moeun Uon,USA,CA,B,Multi-ply,Special Olympian,M,125,97.5,,,,97.5,1
122.02,Greg Cowan,USA,NV,B,Multi-ply,Special Olympian,M,125,60,,,,60,2
145.15,Ryan Johnson,USA,NV,B,Multi-ply,Special Olympian,M,140+,130,,,,130,1
147.05,Jock Mayes,USA,CA,B,Multi-ply,Special Olympian,M,140+,115,,,,115,2
174.18,Kevin Klose,USA,CA,B,Multi-ply,Special Olympian,M,140+,85,,,,85,3
44.54,Soledad Rosas,USA,CA,B,Multi-ply,Special Olympian,F,48,57.5,,,,57.5,1
51.62,Amber Kaslar,USA,CA,B,Multi-ply,Special Olympian,F,52,37.5,,,,37.5,1
54.07,Jackie Kring,USA,CA,B,Multi-ply,Special Olympian,F,56,32.5,,,,32.5,1
58.33,Theresa Hererra,USA,NV,B,Multi-ply,Special Olympian,F,60,35,,,,35,1
62.14,Christina Gunter,USA,CA,B,Multi-ply,Special Olympian,F,67.5,30,,,,30,1
77.84,Manya Wadera,USA,CA,B,Multi-ply,Special Olympian,F,82.5,30,,,,30,1
86.55,Emily Matlack,USA,CA,B,Multi-ply,Special Olympian,F,90,47.5,,,,47.5,1
89.54,Megan Adkins,USA,CA,B,Multi-ply,Special Olympian,F,90,42.5,,,,42.5,2
99.43,Colleen Stainbrook,USA,NV,B,Multi-ply,Special Olympian,F,90+,30,,,,30,1
100.15,Heather Hopps,USA,NV,B,Multi-ply,Special Olympian,F,90+,25,,,,25,2
55.34,Van Williams,USA,OK,B,Multi-ply,Submasters 34-39,M,56,110.5,,,,110.5,1
55.34,Michael Aguanno,USA,NY,B,Multi-ply,Submasters 34-39,M,56,60,,,,60,2
,Adolfo Davila,USA,CA,B,Multi-ply,Submasters 34-39,M,75,217.5,,,,217.5,1
74.93,Monte Hokoana,USA,HI,B,Multi-ply,Submasters 34-39,M,75,175,,,,175,2
74.93,Richard Anderson,USA,AL,B,Multi-ply,Submasters 34-39,M,75,137.5,,,,137.5,3
80.38,Kevin Sawyer,USA,OK,B,Multi-ply,Submasters 34-39,M,82.5,,,,,,DQ
78.74,Keith Daniels,USA,HI,B,Multi-ply,Submasters 34-39,M,82.5,205.5,,,,205.5,1
79.47,Danny Russo,USA,CA,B,Multi-ply,Submasters 34-39,M,82.5,170,,,,170,2
87.09,Danny Soto,USA,WA,B,Multi-ply,Submasters 34-39,M,90,227.5,238,,,227.5,1
87,Michael Happach,USA,IL,B,Multi-ply,Submasters 34-39,M,90,150,,,,150,2
91.72,Brant Bishop,USA,AL,B,Multi-ply,Submasters 34-39,M,100,227.5,,,,227.5,3
96.8,Bruce Nichols,USA,NV,B,Multi-ply,Submasters 34-39,M,100,,,,,,DQ
99.43,Michael Green,USA,FL,B,Multi-ply,Submasters 34-39,M,100,275,280,,,275,1
98.88,Mike Ludovico,USA,CA,B,Multi-ply,Submasters 34-39,M,100,250,,,,250,2
97.52,Ed Barnes,USA,CA,B,Multi-ply,Submasters 34-39,M,100,217.5,,,,217.5,4
99.16,Delwin Chinn,USA,WA,B,Multi-ply,Submasters 34-39,M,100,205,,,,205,5
90.9,Fernando Salinas,USA,CA,B,Multi-ply,Submasters 34-39,M,100,182.5,,,,182.5,6
96.16,Evandro Casagrande,Brazil,,B,Multi-ply,Submasters 34-39,M,100,175,,,,175,7
99.06,Sean McGrath,USA,NY,B,Multi-ply,Submasters 34-39,M,100,142.5,,,,142.5,8
109.77,Patrick Parnell,USA,TX,B,Multi-ply,Submasters 34-39,M,110,,,,,,DQ
108.05,Frank Wakakuwa,USA,HI,B,Multi-ply,Submasters 34-39,M,110,,,,,,DQ
108.05,Anthony Frazier,USA,WA,B,Multi-ply,Submasters 34-39,M,110,210,,,,210,1
105.05,Joe Villegas,USA,CA,B,Multi-ply,Submasters 34-39,M,110,192.5,,,,192.5,2
108.59,Bob Muretta,USA,MT,B,Multi-ply,Submasters 34-39,M,110,172.5,,,,172.5,3
117.12,Jason Laskowski,USA,TX,B,Multi-ply,Submasters 34-39,M,117.5,290,,,,290,1
114.85,Scott Hoekstra,USA,CA,B,Multi-ply,Submasters 34-39,M,117.5,265,,,,265,2
113.58,Nathan Nash,USA,FL,B,Multi-ply,Submasters 34-39,M,117.5,160,,,,160,3
121.93,Patrick Holloway,USA,AZ,B,Multi-ply,Submasters 34-39,M,125,282.5,,,,282.5,1
122.92,Robert Lincoln,USA,CA,B,Multi-ply,Submasters 34-39,M,125,277.5,,,,277.5,2
123.83,Peter Martin,USA,OR,B,Multi-ply,Submasters 34-39,M,125,217.5,,,,217.5,3
138.35,Tiny Meeker,USA,TX,B,Multi-ply,Submasters 34-39,M,140,395,,,,395,1
137.08,Steve Wong,USA,CA,B,Single-ply,Submasters 34-39,M,140,370,,,,370,2
134.35,Ken Overbey,USA,AL,B,Multi-ply,Submasters 34-39,M,140,272.5,,,,272.5,3
125.92,Clint Berey,USA,GA,B,Multi-ply,Submasters 34-39,M,140,235,,,,235,4
148.05,Mitch Klindt,USA,MT,B,Multi-ply,Submasters 34-39,M,140+,,,,,,DQ
199.58,Roy Bradshaw,USA,CA,B,Multi-ply,Submasters 34-39,M,140+,327.5,,,,327.5,1
151.59,Scott Wesley Jordan,USA,AZ,B,Multi-ply,Submasters 34-39,M,140+,295,,,,295,2
59.96,Jeanne Watts,USA,CA,B,Multi-ply,Submasters 34-39,F,60,102.5,,,,102.5,1
57.06,Meg Hudson,USA,WA,B,Multi-ply,Submasters 34-39,F,60,72.5,,,,72.5,2
58.79,Rachel Unson,USA,WA,B,Multi-ply,Submasters 34-39,F,60,72.5,,,,72.5,3
59.87,Penelope Villegas,Mexico,,B,Multi-ply,Submasters 34-39,F,60,67.5,,,,67.5,4
66.32,Virpi Pukkila,Finland,,B,Multi-ply,Submasters 34-39,F,67.5,127.5,,,,127.5,1
70.03,Teresa Jacobs,USA,WA,B,Multi-ply,Submasters 34-39,F,75,95.5,,,,95.5,1
70.13,Disarie Spencer,USA,CA,B,Multi-ply,Submasters 34-39,F,75,52.5,,,,52.5,2
80.38,Gwen Cables,USA,GA,B,Multi-ply,Submasters 34-39,F,82.5,,,,,,DQ
79.38,Kelley Mahoney,USA,WA,B,Multi-ply,Submasters 34-39,F,82.5,105,115,,,105,1
104.05,Tina Riley,USA,CA,B,Multi-ply,Submasters 34-39,F,90+,97.5,,,,97.5,1
48.08,Josh Voss,USA,WA,B,Multi-ply,Teen 13-15,M,52,40,,,,40,1
53.16,John Minahan III,USA,CA,B,Multi-ply,Teen 13-15,M,56,88,,,,88,1
55.16,Donnie Miskinis,USA,OH,B,Multi-ply,Teen 13-15,M,56,70,,,,70,2
55.61,Trevor English,USA,NV,B,Multi-ply,Teen 13-15,M,56,60,,,,60,3
57.61,Matt De La Cruz,USA,TX,B,Multi-ply,Teen 13-15,M,60,,,,,,DQ
58.06,Tyler English,USA,NV,B,Multi-ply,Teen 13-15,M,60,75,,,,75,1
65.68,Travis Belen,USA,WA,B,Multi-ply,Teen 13-15,M,67.5,115,,,,115,1
64.68,Juan Laija,USA,CA,B,Multi-ply,Teen 13-15,M,67.5,92.5,,,,92.5,2
80.56,Alan O'Brien,USA,IL,B,Multi-ply,Teen 13-15,M,82.5,85.5,,,,85.5,1
81.37,Adam Lindsey,USA,NV,B,Multi-ply,Teen 13-15,M,82.5,85,,,,85,2
98.16,Jesse Fain,USA,GA,B,Multi-ply,Teen 13-15,M,100,172.5,182.5,,,172.5,1
55.61,Ray Segura,USA,WA,B,Multi-ply,Teen 16-19,M,56,85,,,,85,1
59.87,Anthony Ramos,USA,GA,B,Multi-ply,Teen 16-19,M,60,125.5,,,,125.5,1
64.95,Dominic Baldassarre,USA,WA,B,Multi-ply,Teen 16-19,M,67.5,122.5,,,,122.5,1
67.4,Trent Corey,USA,GA,B,Multi-ply,Teen 16-19,M,67.5,100,,,,100,2
64.59,Chad Cooper,USA,MI,B,Multi-ply,Teen 16-19,M,67.5,85,,,,85,3
64.5,Brett Faught,USA,IL,B,Multi-ply,Teen 16-19,M,67.5,75,,,,75,4
74.48,Brandon Leming,USA,TN,B,Multi-ply,Teen 16-19,M,75,211,,,,211,1
74.3,Amandeep Singh,USA,CA,B,Multi-ply,Teen 16-19,M,75,175,,,,175,2
70.94,Michael Mokuau,USA,NV,B,Multi-ply,Teen 16-19,M,75,87.5,,,,87.5,3
80.47,Jeremy Hedman,USA,CA,B,Multi-ply,Teen 16-19,M,82.5,137.5,,,,137.5,1
84.55,Eric Millburn,USA,UT,B,Multi-ply,Teen 16-19,M,90,242.5,,,,242.5,1
85,Hunter Beall,USA,LA,B,Multi-ply,Teen 16-19,M,90,142.5,,,,142.5,2
87.45,Brandt Butko,USA,NV,B,Multi-ply,Teen 16-19,M,90,125,,,,125,3
99.16,Sean DeMarinis,USA,CA,B,Multi-ply,Teen 16-19,M,100,222.5,227.5,,,222.5,1
97.07,Aaron Gill,USA,MI,B,Multi-ply,Teen 16-19,M,100,182.5,,,,182.5,2
95.53,Greg De Clark,USA,IL,B,Multi-ply,Teen 16-19,M,100,172.5,,,,172.5,3
95.44,Andy Munsey,USA,OR,B,Multi-ply,Teen 16-19,M,100,137.5,,,,137.5,4
95.8,Adam Contreras,USA,CA,B,Multi-ply,Teen 16-19,M,100,127.5,,,,127.5,5
90.72,Andrew Kimmel,USA,NV,B,Multi-ply,Teen 16-19,M,100,105,,,,105,6
109.23,Kevin Romano,USA,GA,B,Multi-ply,Teen 16-19,M,110,172.5,,,,172.5,1
108.05,Jim Pritchett,USA,NV,B,Multi-ply,Teen 16-19,M,110,140,,,,140,2
115.12,Seth Carter,USA,TN,B,Multi-ply,Teen 16-19,M,117.5,188,,,,188,1
117.03,Jacinto Alvarez,USA,ID,B,Multi-ply,Teen 16-19,M,117.5,147.5,,,,147.5,2
123.92,Chris Barada,USA,WA,B,Multi-ply,Teen 16-19,M,125,230,,,,230,1
125.83,Viktor Tovar,USA,CA,B,Multi-ply,Teen 16-19,M,140,160,,,,160,1
47.63,Sarah Moorman,USA,WA,B,Multi-ply,Teen 13-15,F,48,55,,,,55,1
53.98,Sarah Biddle,USA,IN,B,Multi-ply,Teen 13-15,F,56,50,,,,50,1
81.37,Jennifer Otto,USA,WA,B,Multi-ply,Teen 13-15,F,82.5,67.5,,,,67.5,1
88.99,Kayla Sua,USA,WA,B,Multi-ply,Teen 13-15,F,90,75,,,,75,1
51.62,Brittany Burroughs,USA,GA,B,Multi-ply,Teen 16-19,F,52,57.5,,,,57.5,1
48.44,Katelyn Rose Callaham,USA,WA,B,Multi-ply,Teen 16-19,F,52,52.5,,,,52.5,2
54.79,Karina Phipps,USA,NV,B,Multi-ply,Teen 16-19,F,56,65,,,,65,1
55.61,Erica Ansberry,USA,CA,B,Multi-ply,Teen 16-19,F,56,65,,,,65,2
64.05,Nikki Williams,USA,GA,B,Multi-ply,Teen 16-19,F,67.5,102.5,105,,,102.5,1
,Julie Polk,USA,WA,B,Multi-ply,Teen 16-19,F,75,60,,,,60,1
81.47,Margot O'Halloran,USA,CA,B,Multi-ply,Teen 16-19,F,82.5,80,,,,80,1
82.19,Abigail Biddle,USA,IN,B,Multi-ply,Teen 16-19,F,82.5,62.5,,,,62.5,2
89.63,Hoku Nohara,USA,HI,B,Multi-ply,Teen 16-19,F,90,,,,,,DQ
121.29,Kayla Taueli,USA,WA,B,Multi-ply,Teen 16-19,F,90+,150,,,,150,1
116.3,Danielle Pratt,USA,GA,B,Multi-ply,Teen 16-19,F,90+,95,,,,95,2
